Objects,Wifes_education:1,Wifes_education:2,Wifes_education:3,Wifes_education:4,Husbands_education:1,Husbands_education:2,Husbands_education:3,Husbands_education:4,Wifes_religion,Wifes_now_working?,Husbands_occupation:1,Husbands_occupation:2,Husbands_occupation:3,Husbands_occupation:4,Standard-of-living_index:1,Standard-of-living_index:2,Standard-of-living_index:3,Standard-of-living_index:4,Media_exposure,Contraceptive_method_used:1,Contraceptive_method_used:2,Contraceptive_method_used:3
Entity1,0,1,0,0,0,0,1,0,1,1,0,1,0,0,0,0,1,0,0,1,0,0
Entity2,1,0,0,0,0,0,1,0,1,1,0,0,1,0,0,0,0,1,0,1,0,0
Entity3,0,1,0,0,0,0,1,0,1,1,0,0,1,0,0,0,0,1,0,1,0,0
Entity4,0,0,1,0,0,1,0,0,1,1,0,0,1,0,0,0,1,0,0,1,0,0
Entity5,0,0,1,0,0,0,1,0,1,1,0,0,1,0,0,1,0,0,0,1,0,0
Entity6,0,0,0,1,0,0,0,1,1,1,0,0,1,0,0,0,1,0,0,1,0,0
Entity7,0,1,0,0,0,0,1,0,1,1,0,0,1,0,0,1,0,0,0,1,0,0
Entity8,0,0,1,0,0,0,1,0,1,0,0,0,1,0,0,1,0,0,0,1,0,0
Entity9,0,1,0,0,0,0,1,0,1,1,0,0,1,0,0,0,0,1,0,1,0,0
Entity10,1,0,0,0,1,0,0,0,1,1,0,1,0,0,0,1,0,0,1,1,0,0
Entity11,1,0,0,0,0,0,1,0,1,0,0,0,1,0,0,0,1,0,1,1,0,0
Entity12,1,0,0,0,0,0,0,1,1,1,1,0,0,0,0,0,1,0,0,1,0,0
Entity13,0,0,0,1,0,0,0,1,1,0,1,0,0,0,0,0,0,1,0,1,0,0
Entity14,0,1,0,0,0,0,0,1,1,0,0,0,1,0,0,0,1,0,0,1,0,0
Entity15,0,0,1,0,0,0,0,1,1,1,0,1,0,0,0,0,1,0,0,1,0,0
Entity16,0,1,0,0,0,0,0,1,1,1,0,0,0,1,1,0,0,0,0,1,0,0
Entity17,1,0,0,0,1,0,0,0,1,1,0,1,0,0,0,0,0,1,0,1,0,0
Entity18,0,1,0,0,0,1,0,0,1,1,0,1,0,0,0,0,0,1,0,1,0,0
Entity19,0,1,0,0,0,1,0,0,1,1,0,1,0,0,0,0,1,0,0,1,0,0
Entity20,0,1,0,0,1,0,0,0,1,1,0,1,0,0,1,0,0,0,1,1,0,0
Entity21,0,0,1,0,0,0,0,1,1,0,0,0,0,1,1,0,0,0,0,1,0,0
Entity22,0,0,1,0,0,0,0,1,1,0,0,0,1,0,1,0,0,0,0,1,0,0
Entity23,0,0,0,1,0,0,0,1,0,1,1,0,0,0,0,0,0,1,0,1,0,0
Entity24,0,0,0,1,0,0,0,1,1,1,1,0,0,0,0,0,0,1,0,1,0,0
Entity25,0,0,0,1,0,0,0,1,1,1,1,0,0,0,0,0,0,1,0,1,0,0
Entity26,0,1,0,0,0,0,0,1,1,1,0,0,1,0,0,0,1,0,0,1,0,0
Entity27,0,0,0,1,0,0,0,1,1,0,1,0,0,0,0,0,0,1,0,1,0,0
Entity28,0,0,0,1,0,0,0,1,1,0,1,0,0,0,0,0,0,1,0,1,0,0
Entity29,0,0,0,1,0,0,0,1,1,0,0,1,0,0,0,1,0,0,0,1,0,0
Entity30,1,0,0,0,0,1,0,0,1,1,0,1,0,0,0,0,0,1,0,1,0,0
Entity31,0,0,1,0,0,0,0,1,1,1,1,0,0,0,0,0,0,1,0,1,0,0
Entity32,0,0,0,1,0,0,0,1,1,1,0,0,1,0,0,1,0,0,0,1,0,0
Entity33,0,1,0,0,0,0,0,1,1,0,1,0,0,0,0,1,0,0,0,1,0,0
Entity34,0,1,0,0,0,1,0,0,1,1,0,0,1,0,1,0,0,0,0,1,0,0
Entity35,0,1,0,0,0,0,1,0,1,1,0,0,1,0,0,0,1,0,0,1,0,0
Entity36,1,0,0,0,0,0,1,0,1,1,0,0,1,0,0,1,0,0,1,1,0,0
Entity37,1,0,0,0,0,1,0,0,1,0,0,0,1,0,1,0,0,0,0,1,0,0
Entity38,0,0,1,0,0,0,1,0,1,1,0,0,1,0,0,1,0,0,0,1,0,0
Entity39,0,1,0,0,0,1,0,0,1,1,0,0,1,0,0,0,0,1,0,1,0,0
Entity40,0,1,0,0,0,1,0,0,1,1,0,1,0,0,0,0,0,1,0,1,0,0
Entity41,1,0,0,0,1,0,0,0,1,1,0,0,1,0,1,0,0,0,0,1,0,0
Entity42,0,1,0,0,0,0,1,0,1,0,1,0,0,0,0,0,1,0,0,1,0,0
Entity43,0,1,0,0,0,0,0,1,1,1,1,0,0,0,0,0,1,0,0,1,0,0
Entity44,0,0,0,1,0,0,0,1,0,1,1,0,0,0,0,0,0,1,0,1,0,0
Entity45,0,1,0,0,0,1,0,0,1,1,0,0,1,0,0,1,0,0,0,1,0,0
Entity46,1,0,0,0,0,0,0,1,1,1,0,1,0,0,1,0,0,0,0,1,0,0
Entity47,0,0,0,1,0,0,0,1,1,1,0,1,0,0,0,0,1,0,0,1,0,0
Entity48,0,0,0,1,0,0,0,1,1,1,0,1,0,0,0,0,0,1,0,1,0,0
Entity49,0,0,0,1,0,0,0,1,1,1,1,0,0,0,0,0,0,1,0,1,0,0
Entity50,0,0,0,1,0,0,0,1,1,0,1,0,0,0,0,0,0,1,0,1,0,0
Entity51,0,0,0,1,0,0,0,1,1,0,1,0,0,0,0,0,0,1,0,1,0,0
Entity52,0,0,0,1,0,0,0,1,0,1,0,1,0,0,0,0,0,1,0,1,0,0
Entity53,0,0,1,0,0,0,0,1,1,1,0,0,1,0,0,0,1,0,0,1,0,0
Entity54,0,0,0,1,0,0,0,1,0,0,0,1,0,0,0,0,1,0,0,1,0,0
Entity55,0,1,0,0,0,0,0,1,1,1,0,1,0,0,0,0,1,0,0,1,0,0
Entity56,0,1,0,0,0,1,0,0,1,1,0,1,0,0,0,1,0,0,1,1,0,0
Entity57,0,0,0,1,0,0,0,1,1,0,1,0,0,0,0,0,0,1,0,1,0,0
Entity58,0,0,1,0,0,0,0,1,1,1,0,1,0,0,1,0,0,0,0,1,0,0
Entity59,0,1,0,0,0,0,1,0,1,1,0,0,1,0,0,0,0,1,0,1,0,0
Entity60,0,0,0,1,0,0,0,1,1,1,1,0,0,0,0,1,0,0,0,1,0,0
Entity61,0,0,1,0,0,0,1,0,1,1,0,0,1,0,0,0,1,0,0,1,0,0
Entity62,0,1,0,0,0,0,1,0,1,1,0,1,0,0,0,0,1,0,0,1,0,0
Entity63,1,0,0,0,0,1,0,0,1,0,1,0,0,0,0,0,1,0,0,1,0,0
Entity64,0,1,0,0,0,0,1,0,1,1,0,1,0,0,1,0,0,0,0,1,0,0
Entity65,0,1,0,0,0,0,0,1,1,0,1,0,0,0,0,0,1,0,0,1,0,0
Entity66,0,1,0,0,0,0,0,1,1,1,0,0,1,0,1,0,0,0,0,1,0,0
Entity67,0,0,0,1,0,1,0,0,1,1,0,0,1,0,0,0,1,0,0,1,0,0
Entity68,0,1,0,0,0,0,1,0,1,1,0,0,1,0,1,0,0,0,0,1,0,0
Entity69,0,0,1,0,0,0,0,1,1,1,0,0,1,0,0,0,0,1,0,1,0,0
Entity70,0,0,0,1,0,0,0,1,1,0,0,0,1,0,0,0,1,0,0,1,0,0
Entity71,0,1,0,0,0,0,1,0,1,1,0,1,0,0,0,0,1,0,0,1,0,0
Entity72,0,1,0,0,0,0,1,0,1,1,1,0,0,0,0,0,0,1,0,1,0,0
Entity73,0,1,0,0,0,0,1,0,1,1,1,0,0,0,1,0,0,0,0,1,0,0
Entity74,0,1,0,0,0,0,1,0,1,1,1,0,0,0,0,1,0,0,0,1,0,0
Entity75,0,0,1,0,0,0,0,1,1,1,0,1,0,0,0,0,1,0,0,1,0,0
Entity76,0,0,1,0,0,0,0,1,1,1,0,1,0,0,0,0,1,0,0,1,0,0
Entity77,0,0,0,1,0,0,0,1,1,0,0,1,0,0,0,0,0,1,0,1,0,0
Entity78,0,0,1,0,0,0,0,1,1,1,1,0,0,0,0,0,0,1,0,1,0,0
Entity79,0,1,0,0,0,0,1,0,1,1,0,0,1,0,0,1,0,0,0,1,0,0
Entity80,0,0,0,1,0,0,0,1,1,0,1,0,0,0,0,0,0,1,0,1,0,0
Entity81,0,0,0,1,0,0,0,1,0,1,1,0,0,0,0,0,0,1,0,1,0,0
Entity82,0,0,0,1,0,0,0,1,0,0,1,0,0,0,0,0,0,1,0,1,0,0
Entity83,0,1,0,0,0,0,0,1,1,0,0,0,0,1,0,0,0,1,0,1,0,0
Entity84,0,0,0,1,0,0,0,1,0,0,1,0,0,0,0,0,0,1,0,1,0,0
Entity85,0,0,0,1,0,0,0,1,1,1,1,0,0,0,0,0,0,1,0,1,0,0
Entity86,0,0,0,1,0,0,0,1,1,1,1,0,0,0,0,0,0,1,0,1,0,0
Entity87,0,0,0,1,0,0,0,1,1,1,1,0,0,0,0,0,1,0,0,1,0,0
Entity88,0,0,0,1,0,0,0,1,0,1,1,0,0,0,0,0,0,1,0,1,0,0
Entity89,0,1,0,0,0,0,0,1,1,1,1,0,0,0,0,0,0,1,0,1,0,0
Entity90,0,1,0,0,0,1,0,0,1,0,0,1,0,0,1,0,0,0,0,1,0,0
Entity91,0,1,0,0,0,0,1,0,1,1,0,1,0,0,1,0,0,0,0,1,0,0
Entity92,0,1,0,0,0,0,0,1,1,1,1,0,0,0,0,0,0,1,0,1,0,0
Entity93,0,1,0,0,0,1,0,0,1,1,0,1,0,0,1,0,0,0,0,1,0,0
Entity94,0,1,0,0,0,1,0,0,1,0,0,0,1,0,0,1,0,0,0,1,0,0
Entity95,1,0,0,0,0,1,0,0,1,1,1,0,0,0,0,0,1,0,0,1,0,0
Entity96,1,0,0,0,0,0,1,0,1,1,0,1,0,0,0,0,1,0,1,1,0,0
Entity97,0,1,0,0,0,0,1,0,1,0,0,1,0,0,0,0,1,0,0,1,0,0
Entity98,0,0,0,1,0,0,0,1,1,1,0,1,0,0,1,0,0,0,0,1,0,0
Entity99,0,1,0,0,0,1,0,0,1,1,0,0,1,0,1,0,0,0,0,1,0,0
Entity100,0,1,0,0,0,0,1,0,1,1,0,1,0,0,1,0,0,0,0,1,0,0
Entity101,1,0,0,0,0,1,0,0,1,1,0,0,1,0,1,0,0,0,1,1,0,0
Entity102,0,1,0,0,0,0,1,0,1,0,0,1,0,0,0,1,0,0,0,1,0,0
Entity103,0,1,0,0,0,0,0,1,1,0,0,0,1,0,0,1,0,0,0,1,0,0
Entity104,0,0,0,1,0,0,1,0,1,1,0,1,0,0,0,0,1,0,0,1,0,0
Entity105,0,1,0,0,0,0,0,1,1,1,0,0,1,0,0,0,1,0,0,1,0,0
Entity106,0,0,1,0,0,0,1,0,1,1,0,0,1,0,0,1,0,0,0,1,0,0
Entity107,0,0,0,1,0,0,0,1,1,1,1,0,0,0,1,0,0,0,0,1,0,0
Entity108,0,0,1,0,0,0,0,1,1,0,1,0,0,0,0,0,1,0,0,1,0,0
Entity109,0,1,0,0,0,0,1,0,1,1,0,0,1,0,1,0,0,0,0,1,0,0
Entity110,0,1,0,0,0,0,1,0,1,1,0,0,1,0,1,0,0,0,0,1,0,0
Entity111,0,0,0,1,0,0,0,1,1,0,0,0,1,0,0,0,1,0,0,1,0,0
Entity112,0,0,1,0,0,0,1,0,1,0,0,1,0,0,0,0,1,0,0,1,0,0
Entity113,0,0,0,1,0,0,0,1,1,1,1,0,0,0,0,0,0,1,0,1,0,0
Entity114,0,1,0,0,0,1,0,0,1,1,0,0,1,0,0,0,1,0,0,1,0,0
Entity115,0,0,1,0,0,0,0,1,1,1,1,0,0,0,0,0,1,0,0,1,0,0
Entity116,0,0,0,1,0,0,0,1,1,1,1,0,0,0,0,0,0,1,0,1,0,0
Entity117,0,0,0,1,0,0,0,1,0,0,0,0,1,0,0,0,1,0,0,1,0,0
Entity118,0,0,1,0,0,0,0,1,1,1,1,0,0,0,0,0,1,0,0,1,0,0
Entity119,0,0,0,1,0,0,1,0,1,1,0,1,0,0,0,0,1,0,0,1,0,0
Entity120,0,1,0,0,0,0,1,0,1,1,0,0,1,0,0,0,1,0,0,1,0,0
Entity121,1,0,0,0,0,1,0,0,1,1,0,1,0,0,0,0,0,1,1,1,0,0
Entity122,0,1,0,0,0,0,1,0,1,1,0,1,0,0,0,0,1,0,0,1,0,0
Entity123,0,0,1,0,0,0,0,1,1,1,0,0,1,0,0,0,1,0,0,1,0,0
Entity124,0,1,0,0,0,0,1,0,0,1,0,0,1,0,0,1,0,0,0,1,0,0
Entity125,0,1,0,0,1,0,0,0,1,0,0,0,1,0,0,1,0,0,0,1,0,0
Entity126,0,0,1,0,0,0,0,1,1,1,1,0,0,0,0,1,0,0,1,1,0,0
Entity127,0,0,0,1,0,0,0,1,1,1,1,0,0,0,0,0,1,0,0,1,0,0
Entity128,0,1,0,0,0,0,1,0,1,1,0,0,1,0,0,1,0,0,1,1,0,0
Entity129,1,0,0,0,0,0,1,0,1,0,0,1,0,0,0,1,0,0,1,1,0,0
Entity130,0,0,1,0,0,0,0,1,1,1,1,0,0,0,0,0,1,0,0,1,0,0
Entity131,0,0,1,0,0,0,0,1,1,1,0,0,1,0,1,0,0,0,0,1,0,0
Entity132,0,0,0,1,0,0,0,1,0,0,1,0,0,0,0,0,1,0,0,1,0,0
Entity133,1,0,0,0,0,1,0,0,1,1,0,0,1,0,1,0,0,0,0,1,0,0
Entity134,0,0,1,0,0,0,0,1,1,1,0,0,1,0,1,0,0,0,1,1,0,0
Entity135,0,0,0,1,0,0,0,1,1,1,1,0,0,0,0,0,1,0,0,1,0,0
Entity136,0,0,1,0,0,0,1,0,1,0,0,1,0,0,0,0,0,1,0,1,0,0
Entity137,0,0,0,1,0,0,0,1,1,1,0,0,1,0,0,0,1,0,0,1,0,0
Entity138,0,0,1,0,0,0,1,0,1,1,0,1,0,0,0,1,0,0,0,1,0,0
Entity139,0,0,0,1,0,0,0,1,0,1,0,0,1,0,1,0,0,0,0,1,0,0
Entity140,0,0,0,1,0,0,0,1,1,1,1,0,0,0,0,0,0,1,0,1,0,0
Entity141,0,0,0,1,0,0,0,1,1,1,1,0,0,0,0,0,1,0,0,1,0,0
Entity142,0,0,0,1,0,0,0,1,0,0,0,0,1,0,0,0,1,0,0,1,0,0
Entity143,0,0,0,1,0,0,0,1,1,0,1,0,0,0,0,0,1,0,0,1,0,0
Entity144,0,0,0,1,0,0,0,1,0,1,0,0,1,0,0,0,1,0,0,1,0,0
Entity145,0,1,0,0,0,0,0,1,1,1,0,0,1,0,0,0,0,1,0,1,0,0
Entity146,0,0,0,1,0,0,0,1,1,1,1,0,0,0,0,0,0,1,0,1,0,0
Entity147,0,0,0,1,0,0,0,1,1,1,0,1,0,0,0,0,1,0,0,1,0,0
Entity148,0,0,0,1,0,0,0,1,1,1,1,0,0,0,0,0,0,1,0,1,0,0
Entity149,0,0,0,1,0,0,0,1,1,0,1,0,0,0,0,0,1,0,0,1,0,0
Entity150,0,0,0,1,0,0,0,1,1,1,1,0,0,0,0,0,0,1,0,1,0,0
Entity151,0,0,0,1,0,0,0,1,1,1,0,1,0,0,0,0,0,1,0,1,0,0
Entity152,1,0,0,0,0,0,1,0,1,1,0,0,1,0,0,1,0,0,0,1,0,0
Entity153,0,0,1,0,0,0,0,1,1,1,1,0,0,0,0,0,0,1,1,1,0,0
Entity154,0,0,0,1,0,0,0,1,1,1,0,1,0,0,0,0,0,1,0,1,0,0
Entity155,1,0,0,0,0,1,0,0,1,1,0,1,0,0,0,1,0,0,0,1,0,0
Entity156,1,0,0,0,1,0,0,0,1,1,0,1,0,0,0,0,1,0,1,1,0,0
Entity157,0,0,0,1,0,0,0,1,1,0,0,1,0,0,0,0,0,1,0,1,0,0
Entity158,0,1,0,0,0,0,0,1,1,1,0,0,1,0,0,1,0,0,0,1,0,0
Entity159,1,0,0,0,0,0,0,1,1,1,1,0,0,0,0,1,0,0,1,1,0,0
Entity160,0,1,0,0,0,1,0,0,1,1,0,0,1,0,1,0,0,0,0,1,0,0
Entity161,1,0,0,0,1,0,0,0,1,1,0,1,0,0,1,0,0,0,1,1,0,0
Entity162,0,0,0,1,0,0,0,1,1,0,1,0,0,0,0,0,0,1,0,1,0,0
Entity163,1,0,0,0,0,0,1,0,1,1,0,1,0,0,0,0,1,0,0,1,0,0
Entity164,0,0,1,0,0,0,1,0,1,0,0,0,1,0,0,0,1,0,0,1,0,0
Entity165,0,0,0,1,0,0,0,1,1,1,0,1,0,0,0,0,1,0,0,1,0,0
Entity166,0,0,1,0,0,0,0,1,1,1,0,1,0,0,0,0,0,1,0,1,0,0
Entity167,0,0,1,0,0,0,0,1,1,1,1,0,0,0,0,0,0,1,0,1,0,0
Entity168,0,0,0,1,0,0,0,1,1,1,1,0,0,0,0,0,0,1,0,1,0,0
Entity169,0,0,0,1,0,0,0,1,1,1,0,1,0,0,0,0,0,1,0,1,0,0
Entity170,0,0,1,0,0,0,0,1,1,0,0,1,0,0,0,0,0,1,0,1,0,0
Entity171,0,0,0,1,0,0,0,1,1,1,1,0,0,0,0,0,0,1,0,1,0,0
Entity172,0,1,0,0,0,1,0,0,1,0,0,0,1,0,1,0,0,0,0,1,0,0
Entity173,0,1,0,0,0,0,0,1,1,1,0,1,0,0,0,0,0,1,0,1,0,0
Entity174,0,0,1,0,0,0,1,0,1,1,0,0,1,0,0,0,0,1,0,1,0,0
Entity175,0,0,1,0,0,1,0,0,1,1,0,0,1,0,0,1,0,0,0,1,0,0
Entity176,0,1,0,0,0,0,0,1,1,0,0,0,1,0,0,0,0,1,0,1,0,0
Entity177,0,0,0,1,0,0,0,1,0,1,1,0,0,0,0,0,1,0,0,1,0,0
Entity178,0,1,0,0,0,0,0,1,1,0,1,0,0,0,0,0,0,1,0,1,0,0
Entity179,0,1,0,0,0,0,0,1,1,0,0,1,0,0,0,0,0,1,0,1,0,0
Entity180,0,1,0,0,1,0,0,0,1,0,0,1,0,0,0,0,0,1,0,1,0,0
Entity181,0,0,0,1,0,0,0,1,1,0,1,0,0,0,0,0,0,1,0,1,0,0
Entity182,0,1,0,0,0,0,0,1,1,1,0,1,0,0,0,1,0,0,0,1,0,0
Entity183,1,0,0,0,0,0,1,0,1,1,0,0,1,0,0,0,1,0,0,1,0,0
Entity184,0,1,0,0,1,0,0,0,1,0,0,0,0,1,0,0,1,0,0,1,0,0
Entity185,0,0,1,0,0,0,0,1,1,0,0,1,0,0,0,1,0,0,0,1,0,0
Entity186,0,1,0,0,0,0,1,0,1,1,0,0,1,0,0,0,0,1,0,1,0,0
Entity187,0,1,0,0,0,0,0,1,1,1,0,0,1,0,0,1,0,0,0,1,0,0
Entity188,0,1,0,0,0,0,1,0,1,1,0,0,1,0,1,0,0,0,1,1,0,0
Entity189,0,0,1,0,0,0,1,0,1,1,0,0,1,0,0,1,0,0,0,1,0,0
Entity190,0,0,1,0,0,1,0,0,1,1,0,0,1,0,0,1,0,0,0,1,0,0
Entity191,1,0,0,0,0,1,0,0,1,1,0,0,0,1,1,0,0,0,0,1,0,0
Entity192,0,0,1,0,0,0,0,1,1,0,0,0,1,0,0,1,0,0,0,1,0,0
Entity193,1,0,0,0,1,0,0,0,1,1,0,0,0,1,1,0,0,0,1,1,0,0
Entity194,0,0,1,0,0,0,1,0,1,1,0,0,1,0,0,0,1,0,0,1,0,0
Entity195,0,0,1,0,0,0,0,1,1,0,0,0,1,0,1,0,0,0,0,1,0,0
Entity196,1,0,0,0,0,1,0,0,1,1,0,0,1,0,0,0,1,0,1,1,0,0
Entity197,0,1,0,0,0,1,0,0,1,0,0,0,1,0,1,0,0,0,0,1,0,0
Entity198,0,0,1,0,0,0,0,1,1,1,0,1,0,0,0,0,0,1,0,1,0,0
Entity199,1,0,0,0,1,0,0,0,1,1,0,1,0,0,0,1,0,0,0,1,0,0
Entity200,0,1,0,0,0,0,0,1,1,1,0,0,1,0,0,0,1,0,0,1,0,0
Entity201,1,0,0,0,0,0,0,1,0,1,0,1,0,0,0,1,0,0,1,1,0,0
Entity202,0,1,0,0,0,0,0,1,1,1,0,0,1,0,0,0,1,0,0,1,0,0
Entity203,0,1,0,0,0,0,0,1,1,0,0,1,0,0,0,0,0,1,0,1,0,0
Entity204,0,1,0,0,0,0,1,0,1,1,0,0,1,0,0,0,1,0,0,1,0,0
Entity205,0,0,1,0,0,0,0,1,1,1,1,0,0,0,0,1,0,0,0,1,0,0
Entity206,0,1,0,0,0,0,1,0,1,1,0,0,1,0,1,0,0,0,0,1,0,0
Entity207,0,1,0,0,0,0,0,1,1,1,0,0,1,0,1,0,0,0,0,1,0,0
Entity208,0,0,1,0,0,0,0,1,1,0,0,1,0,0,0,0,1,0,0,1,0,0
Entity209,0,0,0,1,0,0,0,1,1,1,1,0,0,0,0,0,0,1,0,1,0,0
Entity210,0,1,0,0,0,0,1,0,1,0,0,0,1,0,0,1,0,0,0,1,0,0
Entity211,0,0,1,0,0,0,1,0,0,1,0,0,1,0,0,0,0,1,0,1,0,0
Entity212,1,0,0,0,0,1,0,0,1,0,0,0,1,0,0,0,1,0,0,1,0,0
Entity213,0,0,1,0,0,0,0,1,1,1,0,0,1,0,0,1,0,0,0,1,0,0
Entity214,1,0,0,0,0,0,1,0,1,1,0,0,1,0,0,1,0,0,0,1,0,0
Entity215,1,0,0,0,0,0,1,0,1,1,0,0,1,0,1,0,0,0,0,1,0,0
Entity216,0,0,1,0,0,0,0,1,1,0,0,1,0,0,0,1,0,0,0,1,0,0
Entity217,0,0,1,0,0,1,0,0,1,1,0,0,1,0,0,0,1,0,0,1,0,0
Entity218,0,0,1,0,0,1,0,0,1,0,0,1,0,0,0,0,1,0,1,1,0,0
Entity219,0,0,1,0,0,1,0,0,1,1,0,1,0,0,0,1,0,0,1,1,0,0
Entity220,0,0,1,0,0,0,1,0,1,0,0,1,0,0,0,0,1,0,0,1,0,0
Entity221,0,1,0,0,0,0,1,0,1,1,0,0,1,0,0,0,1,0,0,1,0,0
Entity222,0,0,1,0,0,0,0,1,1,1,0,0,1,0,0,0,1,0,0,1,0,0
Entity223,1,0,0,0,0,1,0,0,1,1,0,1,0,0,0,1,0,0,1,1,0,0
Entity224,1,0,0,0,0,1,0,0,1,1,0,1,0,0,0,0,0,1,0,1,0,0
Entity225,0,0,0,1,0,0,0,1,1,1,1,0,0,0,0,0,0,1,0,1,0,0
Entity226,0,0,0,1,0,0,0,1,1,0,1,0,0,0,0,0,1,0,0,1,0,0
Entity227,0,0,1,0,0,0,1,0,1,1,1,0,0,0,0,0,0,1,0,1,0,0
Entity228,1,0,0,0,0,0,1,0,1,1,0,1,0,0,0,0,1,0,1,1,0,0
Entity229,1,0,0,0,0,0,0,1,1,1,0,0,1,0,0,0,1,0,0,1,0,0
Entity230,0,0,1,0,0,0,0,1,1,1,0,0,1,0,0,1,0,0,0,1,0,0
Entity231,1,0,0,0,0,0,1,0,1,1,0,0,1,0,0,0,0,1,1,1,0,0
Entity232,0,1,0,0,0,0,0,1,1,1,1,0,0,0,0,0,1,0,0,1,0,0
Entity233,0,0,1,0,0,0,0,1,1,0,0,0,1,0,1,0,0,0,0,1,0,0
Entity234,0,1,0,0,0,0,1,0,1,1,0,1,0,0,0,0,0,1,0,1,0,0
Entity235,1,0,0,0,1,0,0,0,1,0,0,0,1,0,1,0,0,0,1,1,0,0
Entity236,0,1,0,0,0,0,1,0,1,0,0,0,1,0,0,0,0,1,0,1,0,0
Entity237,0,1,0,0,0,0,1,0,1,0,0,0,1,0,0,1,0,0,0,1,0,0
Entity238,0,0,0,1,0,0,0,1,1,1,0,0,1,0,0,0,1,0,0,1,0,0
Entity239,0,0,1,0,0,0,1,0,1,1,0,0,1,0,0,0,1,0,0,1,0,0
Entity240,0,0,1,0,0,0,1,0,1,1,0,1,0,0,0,0,1,0,0,1,0,0
Entity241,0,0,1,0,0,0,0,1,1,1,0,1,0,0,0,0,1,0,0,1,0,0
Entity242,0,0,1,0,0,0,1,0,1,1,0,1,0,0,0,1,0,0,0,1,0,0
Entity243,1,0,0,0,0,0,0,1,1,1,0,0,1,0,0,0,1,0,0,1,0,0
Entity244,0,0,0,1,0,0,0,1,1,1,1,0,0,0,0,0,1,0,0,1,0,0
Entity245,0,0,1,0,0,0,0,1,1,1,1,0,0,0,0,0,0,1,0,1,0,0
Entity246,0,0,0,1,0,0,0,1,0,1,1,0,0,0,0,0,0,1,0,1,0,0
Entity247,0,0,0,1,0,0,0,1,1,0,1,0,0,0,0,0,1,0,0,1,0,0
Entity248,0,0,0,1,0,0,0,1,1,1,1,0,0,0,0,0,0,1,0,1,0,0
Entity249,0,0,0,1,0,0,0,1,1,1,1,0,0,0,0,1,0,0,0,1,0,0
Entity250,0,0,1,0,0,1,0,0,1,0,0,1,0,0,0,1,0,0,1,1,0,0
Entity251,0,0,0,1,0,0,0,1,0,1,1,0,0,0,0,1,0,0,0,1,0,0
Entity252,0,0,0,1,0,0,0,1,1,1,0,0,1,0,0,0,1,0,0,1,0,0
Entity253,0,0,1,0,0,0,1,0,1,1,0,0,1,0,0,1,0,0,0,1,0,0
Entity254,0,0,0,1,0,0,0,1,1,0,1,0,0,0,0,0,0,1,0,1,0,0
Entity255,1,0,0,0,0,0,1,0,1,1,0,0,1,0,0,0,1,0,1,1,0,0
Entity256,0,0,0,1,0,0,0,1,1,1,0,0,1,0,0,0,1,0,0,1,0,0
Entity257,0,0,1,0,0,0,0,1,0,1,0,1,0,0,0,0,0,1,0,1,0,0
Entity258,1,0,0,0,0,1,0,0,1,1,0,0,1,0,0,0,0,1,0,1,0,0
Entity259,0,1,0,0,0,1,0,0,1,0,0,0,1,0,0,1,0,0,0,1,0,0
Entity260,0,0,1,0,0,0,1,0,0,1,0,0,1,0,0,0,0,1,0,1,0,0
Entity261,1,0,0,0,0,1,0,0,1,0,0,0,1,0,0,1,0,0,0,1,0,0
Entity262,1,0,0,0,0,0,1,0,1,0,0,0,1,0,0,1,0,0,0,1,0,0
Entity263,0,0,1,0,0,0,1,0,1,0,0,1,0,0,0,0,0,1,0,1,0,0
Entity264,0,0,1,0,0,0,1,0,1,1,0,1,0,0,0,1,0,0,0,1,0,0
Entity265,0,1,0,0,0,0,0,1,1,1,0,0,1,0,0,1,0,0,0,1,0,0
Entity266,0,0,0,1,0,0,0,1,1,1,1,0,0,0,0,0,1,0,0,1,0,0
Entity267,0,0,1,0,0,0,0,1,1,1,0,1,0,0,0,0,0,1,0,1,0,0
Entity268,0,0,1,0,0,0,0,1,1,0,0,0,1,0,0,1,0,0,0,1,0,0
Entity269,0,0,1,0,0,0,1,0,1,1,0,0,1,0,1,0,0,0,0,1,0,0
Entity270,1,0,0,0,1,0,0,0,1,0,0,0,1,0,1,0,0,0,0,1,0,0
Entity271,0,0,0,1,0,0,0,1,1,1,1,0,0,0,0,0,0,1,0,1,0,0
Entity272,0,0,1,0,0,0,0,1,1,1,0,0,1,0,0,0,0,1,0,1,0,0
Entity273,0,0,1,0,0,0,0,1,1,1,0,1,0,0,1,0,0,0,0,1,0,0
Entity274,0,1,0,0,0,0,0,1,0,1,0,1,0,0,0,0,1,0,0,1,0,0
Entity275,0,0,1,0,0,0,0,1,1,0,0,1,0,0,0,0,1,0,0,1,0,0
Entity276,0,0,1,0,0,0,0,1,0,1,0,1,0,0,0,0,1,0,0,1,0,0
Entity277,0,1,0,0,1,0,0,0,0,1,0,1,0,0,0,0,0,1,0,1,0,0
Entity278,0,1,0,0,0,0,1,0,1,1,0,1,0,0,0,0,0,1,0,1,0,0
Entity279,0,0,1,0,0,0,0,1,1,1,0,0,1,0,0,0,0,1,0,1,0,0
Entity280,0,0,0,1,0,0,0,1,1,1,0,1,0,0,0,0,0,1,0,1,0,0
Entity281,0,1,0,0,0,0,1,0,1,0,0,0,1,0,0,0,1,0,0,1,0,0
Entity282,0,1,0,0,0,0,0,1,1,1,0,0,1,0,1,0,0,0,0,1,0,0
Entity283,0,0,0,1,0,0,0,1,1,1,1,0,0,0,0,0,0,1,0,1,0,0
Entity284,0,0,1,0,0,0,1,0,1,1,0,0,1,0,0,0,0,1,0,1,0,0
Entity285,0,1,0,0,0,0,0,1,1,0,0,0,0,1,0,0,0,1,1,1,0,0
Entity286,0,0,0,1,0,0,0,1,0,1,0,1,0,0,0,0,0,1,0,1,0,0
Entity287,0,0,0,1,0,0,0,1,1,0,1,0,0,0,0,0,0,1,0,1,0,0
Entity288,0,1,0,0,0,0,0,1,1,1,0,0,1,0,0,0,1,0,0,1,0,0
Entity289,0,1,0,0,1,0,0,0,1,1,0,0,1,0,0,1,0,0,0,1,0,0
Entity290,1,0,0,0,0,0,1,0,1,1,0,1,0,0,0,1,0,0,1,1,0,0
Entity291,0,0,0,1,0,0,0,1,1,1,0,1,0,0,0,1,0,0,0,1,0,0
Entity292,0,0,0,1,0,0,0,1,1,1,1,0,0,0,0,0,0,1,0,1,0,0
Entity293,1,0,0,0,0,1,0,0,1,1,0,1,0,0,0,0,0,1,0,1,0,0
Entity294,0,0,0,1,0,0,0,1,1,1,0,0,1,0,0,0,0,1,0,1,0,0
Entity295,0,0,0,1,0,0,0,1,1,1,1,0,0,0,0,0,1,0,0,1,0,0
Entity296,0,0,1,0,0,0,0,1,1,1,1,0,0,0,0,0,0,1,0,1,0,0
Entity297,0,0,1,0,0,0,0,1,1,1,1,0,0,0,0,0,0,1,0,1,0,0
Entity298,0,0,0,1,0,0,0,1,1,1,1,0,0,0,0,0,0,1,0,1,0,0
Entity299,0,0,0,1,0,0,0,1,0,1,1,0,0,0,0,0,0,1,0,1,0,0
Entity300,0,0,0,1,0,0,0,1,1,1,1,0,0,0,0,0,0,1,0,1,0,0
Entity301,1,0,0,0,0,1,0,0,1,1,0,1,0,0,0,0,0,1,0,1,0,0
Entity302,0,0,0,1,0,1,0,0,1,0,0,1,0,0,0,1,0,0,0,1,0,0
Entity303,0,0,1,0,0,0,1,0,1,1,0,0,1,0,0,0,0,1,0,1,0,0
Entity304,0,1,0,0,0,0,0,1,1,1,0,0,1,0,0,0,0,1,0,1,0,0
Entity305,0,0,0,1,0,0,0,1,1,0,0,1,0,0,0,0,0,1,0,1,0,0
Entity306,0,0,0,1,0,0,0,1,1,0,0,0,1,0,0,0,1,0,0,1,0,0
Entity307,1,0,0,0,0,1,0,0,1,1,0,1,0,0,0,0,0,1,0,1,0,0
Entity308,0,0,1,0,0,0,0,1,1,1,1,0,0,0,0,0,0,1,0,1,0,0
Entity309,0,0,1,0,0,0,1,0,1,1,0,1,0,0,0,1,0,0,0,1,0,0
Entity310,0,0,1,0,0,0,0,1,1,1,0,1,0,0,0,0,1,0,0,1,0,0
Entity311,0,0,1,0,0,0,0,1,1,1,0,1,0,0,0,0,1,0,0,1,0,0
Entity312,0,0,1,0,0,0,1,0,1,0,0,1,0,0,0,0,0,1,0,1,0,0
Entity313,1,0,0,0,0,0,0,1,1,0,0,0,1,0,0,0,1,0,1,1,0,0
Entity314,0,0,0,1,0,0,0,1,1,1,0,0,1,0,0,0,0,1,0,1,0,0
Entity315,0,1,0,0,0,1,0,0,0,0,0,0,1,0,0,0,1,0,0,1,0,0
Entity316,0,1,0,0,0,0,1,0,0,0,0,1,0,0,0,0,0,1,0,1,0,0
Entity317,1,0,0,0,0,0,0,1,1,0,0,1,0,0,0,0,1,0,0,1,0,0
Entity318,0,0,1,0,0,0,1,0,1,0,0,0,1,0,0,0,0,1,0,1,0,0
Entity319,0,0,1,0,0,0,0,1,1,1,0,0,1,0,0,0,1,0,0,1,0,0
Entity320,0,1,0,0,0,0,1,0,0,1,0,1,0,0,0,0,0,1,0,1,0,0
Entity321,0,0,0,1,0,0,0,1,0,1,0,0,1,0,0,0,0,1,0,1,0,0
Entity322,1,0,0,0,1,0,0,0,1,0,0,0,1,0,0,0,0,1,0,1,0,0
Entity323,0,0,1,0,0,0,0,1,0,1,1,0,0,0,0,0,0,1,0,1,0,0
Entity324,1,0,0,0,0,0,1,0,1,0,0,0,1,0,0,0,0,1,1,1,0,0
Entity325,0,0,0,1,0,0,0,1,0,1,1,0,0,0,0,0,1,0,0,1,0,0
Entity326,0,0,0,1,0,0,0,1,0,1,0,1,0,0,0,0,1,0,0,1,0,0
Entity327,1,0,0,0,0,0,1,0,1,1,0,0,1,0,0,0,1,0,1,1,0,0
Entity328,0,0,0,1,0,0,0,1,0,1,0,0,1,0,0,0,0,1,0,1,0,0
Entity329,0,0,0,1,0,0,0,1,1,1,0,0,1,0,0,0,0,1,0,1,0,0
Entity330,0,0,1,0,0,0,0,1,0,1,0,0,1,0,0,0,0,1,0,1,0,0
Entity331,0,0,1,0,0,0,0,1,0,1,0,1,0,0,0,0,0,1,0,1,0,0
Entity332,1,0,0,0,0,1,0,0,1,0,0,0,0,1,0,0,0,1,0,1,0,0
Entity333,1,0,0,0,0,1,0,0,1,0,0,0,1,0,0,0,0,1,0,1,0,0
Entity334,0,0,0,1,0,0,0,1,0,1,1,0,0,0,0,0,0,1,0,1,0,0
Entity335,0,0,0,1,0,0,0,1,0,1,0,0,1,0,0,0,0,1,0,1,0,0
Entity336,0,1,0,0,0,1,0,0,1,1,0,1,0,0,0,1,0,0,1,1,0,0
Entity337,0,0,0,1,0,0,1,0,0,0,0,0,1,0,0,0,1,0,0,1,0,0
Entity338,0,0,0,1,0,0,0,1,1,0,0,1,0,0,0,0,0,1,0,1,0,0
Entity339,0,0,0,1,0,0,0,1,1,0,0,1,0,0,0,0,0,1,0,1,0,0
Entity340,0,0,1,0,0,0,0,1,1,1,0,1,0,0,1,0,0,0,0,1,0,0
Entity341,0,1,0,0,0,0,1,0,1,0,0,0,1,0,0,1,0,0,0,1,0,0
Entity342,0,0,1,0,0,0,1,0,1,1,0,0,0,1,0,0,1,0,0,1,0,0
Entity343,0,0,0,1,0,0,0,1,0,1,0,1,0,0,0,0,0,1,0,1,0,0
Entity344,0,0,1,0,0,0,0,1,0,1,0,0,1,0,0,0,0,1,0,1,0,0
Entity345,0,0,0,1,0,0,0,1,1,1,0,0,1,0,0,0,1,0,0,1,0,0
Entity346,0,0,0,1,0,0,0,1,0,1,0,1,0,0,0,0,0,1,0,1,0,0
Entity347,0,0,0,1,0,0,0,1,0,0,0,0,1,0,0,0,0,1,0,1,0,0
Entity348,1,0,0,0,0,1,0,0,1,1,0,0,1,0,0,1,0,0,1,1,0,0
Entity349,0,1,0,0,0,1,0,0,1,1,0,0,1,0,0,0,1,0,0,1,0,0
Entity350,0,0,1,0,0,0,1,0,1,1,0,0,1,0,1,0,0,0,0,1,0,0
Entity351,0,1,0,0,0,1,0,0,1,1,0,0,1,0,1,0,0,0,0,1,0,0
Entity352,1,0,0,0,0,1,0,0,1,1,0,0,1,0,1,0,0,0,1,1,0,0
Entity353,0,1,0,0,0,1,0,0,1,1,0,0,1,0,1,0,0,0,1,1,0,0
Entity354,0,1,0,0,0,1,0,0,1,1,0,1,0,0,1,0,0,0,0,1,0,0
Entity355,0,1,0,0,0,0,1,0,1,1,0,0,1,0,0,1,0,0,0,1,0,0
Entity356,0,1,0,0,0,1,0,0,1,0,0,0,1,0,0,1,0,0,1,1,0,0
Entity357,0,1,0,0,0,0,0,1,1,1,1,0,0,0,0,0,0,1,0,1,0,0
Entity358,0,1,0,0,0,0,0,1,1,1,0,0,1,0,0,0,0,1,0,1,0,0
Entity359,0,1,0,0,0,0,1,0,1,1,1,0,0,0,0,1,0,0,0,1,0,0
Entity360,0,1,0,0,0,0,1,0,1,1,0,1,0,0,0,0,0,1,0,1,0,0
Entity361,0,0,1,0,0,0,0,1,1,1,0,0,1,0,1,0,0,0,0,1,0,0
Entity362,0,0,1,0,0,0,1,0,1,1,0,1,0,0,0,0,0,1,0,1,0,0
Entity363,1,0,0,0,0,0,1,0,1,1,0,0,1,0,0,0,0,1,0,1,0,0
Entity364,0,1,0,0,0,0,1,0,1,0,0,1,0,0,0,0,0,1,0,1,0,0
Entity365,0,0,1,0,0,1,0,0,1,1,0,1,0,0,0,1,0,0,0,1,0,0
Entity366,0,1,0,0,0,0,1,0,1,1,0,0,1,0,0,0,0,1,0,1,0,0
Entity367,0,0,1,0,0,0,1,0,1,0,0,1,0,0,0,0,0,1,0,1,0,0
Entity368,0,0,0,1,0,0,0,1,1,1,0,1,0,0,0,0,1,0,0,1,0,0
Entity369,0,1,0,0,0,0,1,0,1,0,0,0,1,0,0,0,1,0,0,1,0,0
Entity370,0,0,1,0,0,0,1,0,1,1,0,0,1,0,0,0,1,0,0,1,0,0
Entity371,0,0,1,0,0,0,1,0,1,1,1,0,0,0,0,0,0,1,0,1,0,0
Entity372,0,1,0,0,0,0,1,0,1,1,0,1,0,0,0,0,1,0,0,1,0,0
Entity373,0,1,0,0,0,0,1,0,1,1,0,0,1,0,0,1,0,0,0,1,0,0
Entity374,0,0,1,0,0,0,0,1,1,1,1,0,0,0,0,0,0,1,0,1,0,0
Entity375,1,0,0,0,0,0,1,0,1,1,0,0,1,0,0,0,1,0,1,1,0,0
Entity376,0,0,1,0,0,0,1,0,1,1,0,1,0,0,0,1,0,0,0,1,0,0
Entity377,0,0,1,0,0,0,1,0,1,1,0,1,0,0,0,1,0,0,1,1,0,0
Entity378,0,1,0,0,0,0,0,1,1,1,0,1,0,0,0,0,1,0,0,1,0,0
Entity379,0,1,0,0,0,0,1,0,1,1,0,1,0,0,0,0,1,0,0,1,0,0
Entity380,1,0,0,0,0,1,0,0,1,1,0,0,1,0,0,0,1,0,1,1,0,0
Entity381,0,0,1,0,0,0,1,0,1,1,0,1,0,0,0,1,0,0,0,1,0,0
Entity382,0,1,0,0,0,0,0,1,0,1,0,1,0,0,0,1,0,0,0,1,0,0
Entity383,0,1,0,0,0,0,1,0,0,0,0,0,1,0,0,0,1,0,0,1,0,0
Entity384,0,1,0,0,0,0,1,0,1,0,0,1,0,0,1,0,0,0,0,1,0,0
Entity385,0,1,0,0,0,0,0,1,1,1,0,0,1,0,0,0,1,0,0,1,0,0
Entity386,0,0,0,1,0,0,0,1,1,0,1,0,0,0,0,0,0,1,0,1,0,0
Entity387,0,0,0,1,0,0,0,1,1,0,1,0,0,0,0,0,0,1,1,1,0,0
Entity388,0,0,0,1,0,0,0,1,0,1,0,0,1,0,0,0,0,1,0,1,0,0
Entity389,0,1,0,0,0,0,0,1,1,0,0,0,1,0,0,0,0,1,0,1,0,0
Entity390,0,1,0,0,0,0,1,0,1,1,0,0,1,0,0,0,0,1,0,1,0,0
Entity391,0,0,0,1,0,0,0,1,1,0,0,0,1,0,0,0,1,0,0,1,0,0
Entity392,0,0,0,1,0,0,0,1,1,1,0,0,1,0,0,0,0,1,0,1,0,0
Entity393,1,0,0,0,0,0,0,1,1,1,1,0,0,0,0,0,0,1,0,1,0,0
Entity394,0,0,1,0,0,0,1,0,1,1,0,0,1,0,0,0,0,1,0,1,0,0
Entity395,0,0,0,1,0,0,0,1,1,0,0,1,0,0,0,0,0,1,0,1,0,0
Entity396,0,0,0,1,0,0,0,1,0,1,1,0,0,0,0,0,0,1,0,1,0,0
Entity397,1,0,0,0,0,0,1,0,1,1,0,1,0,0,0,0,0,1,0,1,0,0
Entity398,1,0,0,0,1,0,0,0,1,0,0,1,0,0,0,1,0,0,1,1,0,0
Entity399,0,1,0,0,0,1,0,0,1,1,0,1,0,0,0,1,0,0,0,1,0,0
Entity400,1,0,0,0,0,1,0,0,1,1,0,1,0,0,1,0,0,0,1,1,0,0
Entity401,1,0,0,0,0,1,0,0,1,1,0,0,1,0,1,0,0,0,1,1,0,0
Entity402,0,0,1,0,0,0,0,1,1,1,1,0,0,0,0,0,0,1,0,1,0,0
Entity403,0,1,0,0,0,1,0,0,1,1,0,1,0,0,0,1,0,0,0,1,0,0
Entity404,1,0,0,0,0,1,0,0,1,1,0,0,1,0,0,0,0,1,1,1,0,0
Entity405,0,0,1,0,0,0,0,1,1,0,1,0,0,0,0,0,1,0,0,1,0,0
Entity406,0,0,1,0,0,0,1,0,1,1,0,0,1,0,0,0,1,0,0,1,0,0
Entity407,0,1,0,0,0,1,0,0,1,1,0,1,0,0,0,0,0,1,0,1,0,0
Entity408,0,0,1,0,0,0,1,0,1,1,0,1,0,0,0,0,0,1,0,1,0,0
Entity409,0,0,1,0,0,0,1,0,1,0,0,1,0,0,0,1,0,0,0,1,0,0
Entity410,0,0,1,0,0,0,1,0,1,1,0,1,0,0,0,0,0,1,0,1,0,0
Entity411,0,1,0,0,0,0,1,0,1,0,0,1,0,0,0,0,0,1,0,1,0,0
Entity412,0,1,0,0,0,0,0,1,1,1,0,0,1,0,0,0,0,1,0,1,0,0
Entity413,1,0,0,0,1,0,0,0,1,1,0,0,1,0,0,0,0,1,0,1,0,0
Entity414,0,1,0,0,0,1,0,0,1,1,0,0,1,0,1,0,0,0,0,1,0,0
Entity415,0,1,0,0,0,0,1,0,1,1,0,0,1,0,0,0,0,1,0,1,0,0
Entity416,0,0,1,0,0,0,1,0,1,1,0,0,1,0,0,0,0,1,0,0,1,0
Entity417,0,0,0,1,0,0,1,0,1,1,1,0,0,0,0,0,0,1,0,0,1,0
Entity418,0,0,0,1,0,0,0,1,1,1,1,0,0,0,0,0,0,1,0,0,1,0
Entity419,0,0,0,1,0,0,0,1,1,0,1,0,0,0,0,0,0,1,0,0,1,0
Entity420,0,0,1,0,0,0,1,0,1,0,1,0,0,0,0,0,1,0,0,0,1,0
Entity421,0,0,1,0,0,0,0,1,1,1,1,0,0,0,0,0,1,0,0,0,1,0
Entity422,0,1,0,0,0,0,0,1,1,1,0,0,1,0,0,0,1,0,0,0,1,0
Entity423,0,0,0,1,0,0,0,1,1,1,1,0,0,0,0,0,0,1,0,0,1,0
Entity424,0,1,0,0,0,0,0,1,1,1,0,0,1,0,0,0,0,1,0,0,1,0
Entity425,0,1,0,0,0,0,1,0,1,1,0,0,1,0,0,0,0,1,0,0,1,0
Entity426,0,0,0,1,0,0,0,1,0,0,1,0,0,0,0,0,0,1,0,0,1,0
Entity427,0,0,0,1,0,0,0,1,1,1,1,0,0,0,0,0,0,1,0,0,1,0
Entity428,1,0,0,0,1,0,0,0,1,1,0,0,1,0,0,0,0,1,0,0,1,0
Entity429,0,1,0,0,0,0,0,1,1,1,0,0,1,0,0,0,0,1,0,0,1,0
Entity430,0,0,0,1,0,0,0,1,0,0,1,0,0,0,0,1,0,0,0,0,1,0
Entity431,0,0,0,1,0,0,0,1,1,1,1,0,0,0,0,1,0,0,0,0,1,0
Entity432,0,0,1,0,0,0,0,1,1,1,0,0,1,0,0,0,0,1,0,0,1,0
Entity433,0,0,1,0,0,0,0,1,1,1,0,1,0,0,0,0,1,0,0,0,1,0
Entity434,0,0,0,1,0,0,0,1,1,0,0,0,1,0,0,0,1,0,0,0,1,0
Entity435,0,0,1,0,0,0,0,1,1,1,0,0,1,0,0,1,0,0,0,0,1,0
Entity436,0,0,0,1,0,0,0,1,1,1,1,0,0,0,0,0,0,1,0,0,1,0
Entity437,0,1,0,0,1,0,0,0,1,0,0,0,1,0,0,0,1,0,0,0,1,0
Entity438,0,1,0,0,0,1,0,0,1,1,0,1,0,0,0,0,1,0,0,0,1,0
Entity439,0,1,0,0,0,0,1,0,1,1,0,0,1,0,0,0,1,0,0,0,1,0
Entity440,0,1,0,0,0,0,0,1,1,0,0,0,1,0,0,0,0,1,0,0,1,0
Entity441,0,0,0,1,0,0,0,1,1,1,0,1,0,0,0,0,0,1,0,0,1,0
Entity442,0,0,0,1,0,0,1,0,1,0,0,1,0,0,0,0,0,1,0,0,1,0
Entity443,0,0,0,1,0,0,0,1,1,0,1,0,0,0,0,0,0,1,0,0,1,0
Entity444,0,0,0,1,0,0,0,1,0,0,1,0,0,0,0,0,0,1,0,0,1,0
Entity445,0,0,0,1,0,0,0,1,1,1,1,0,0,0,0,0,0,1,0,0,1,0
Entity446,0,1,0,0,0,1,0,0,1,0,0,0,1,0,0,0,0,1,0,0,1,0
Entity447,0,0,0,1,0,0,0,1,1,1,1,0,0,0,0,0,0,1,0,0,1,0
Entity448,0,0,0,1,0,0,0,1,0,0,1,0,0,0,0,0,0,1,0,0,1,0
Entity449,0,0,0,1,0,0,0,1,0,1,1,0,0,0,0,0,1,0,0,0,1,0
Entity450,0,0,1,0,0,0,0,1,1,1,0,1,0,0,0,0,0,1,0,0,1,0
Entity451,0,0,0,1,0,0,0,1,1,1,0,0,1,0,0,0,0,1,0,0,1,0
Entity452,0,1,0,0,0,0,0,1,1,1,1,0,0,0,0,0,1,0,0,0,1,0
Entity453,0,0,1,0,0,0,1,0,1,1,0,0,1,0,1,0,0,0,0,0,1,0
Entity454,0,0,0,1,0,0,0,1,1,1,1,0,0,0,0,0,0,1,0,0,1,0
Entity455,0,0,0,1,0,0,0,1,1,1,0,1,0,0,0,0,0,1,0,0,1,0
Entity456,0,0,1,0,0,0,1,0,1,0,0,0,1,0,0,0,0,1,0,0,1,0
Entity457,0,0,0,1,0,0,0,1,1,1,1,0,0,0,0,0,0,1,0,0,1,0
Entity458,0,0,0,1,0,0,0,1,1,1,1,0,0,0,0,0,0,1,0,0,1,0
Entity459,0,0,0,1,0,0,0,1,1,1,1,0,0,0,0,0,0,1,0,0,1,0
Entity460,0,0,0,1,0,0,0,1,0,1,1,0,0,0,0,0,0,1,0,0,1,0
Entity461,0,0,0,1,0,0,0,1,1,0,1,0,0,0,0,0,0,1,0,0,1,0
Entity462,0,0,0,1,0,0,0,1,1,1,1,0,0,0,0,0,0,1,0,0,1,0
Entity463,0,0,0,1,0,0,0,1,1,1,1,0,0,0,0,0,0,1,0,0,1,0
Entity464,0,0,0,1,0,0,0,1,1,1,1,0,0,0,0,0,0,1,0,0,1,0
Entity465,0,0,0,1,0,0,0,1,0,1,1,0,0,0,0,0,0,1,0,0,1,0
Entity466,0,0,0,1,0,0,0,1,1,1,1,0,0,0,0,0,0,1,0,0,1,0
Entity467,0,0,1,0,0,0,1,0,0,0,0,1,0,0,0,0,0,1,0,0,1,0
Entity468,0,0,0,1,0,0,1,0,1,1,1,0,0,0,0,0,0,1,0,0,1,0
Entity469,1,0,0,0,0,0,0,1,1,0,0,0,0,1,0,1,0,0,1,0,1,0
Entity470,0,1,0,0,0,0,0,1,1,1,1,0,0,0,0,0,0,1,0,0,1,0
Entity471,0,0,0,1,0,0,0,1,0,0,0,0,0,1,0,0,0,1,0,0,1,0
Entity472,0,1,0,0,0,0,1,0,1,1,0,0,1,0,0,0,1,0,0,0,1,0
Entity473,0,0,0,1,0,0,0,1,1,1,0,0,1,0,0,0,1,0,0,0,1,0
Entity474,0,0,0,1,0,0,0,1,0,0,1,0,0,0,0,0,0,1,0,0,1,0
Entity475,0,0,0,1,0,0,0,1,1,1,1,0,0,0,0,0,0,1,0,0,1,0
Entity476,0,0,0,1,0,0,0,1,1,1,1,0,0,0,0,0,0,1,0,0,1,0
Entity477,0,0,0,1,0,0,0,1,0,1,1,0,0,0,0,0,1,0,0,0,1,0
Entity478,0,0,0,1,0,0,0,1,1,1,1,0,0,0,0,0,0,1,0,0,1,0
Entity479,0,0,0,1,0,0,0,1,1,1,1,0,0,0,0,0,1,0,0,0,1,0
Entity480,0,0,0,1,0,0,0,1,1,0,0,1,0,0,0,0,1,0,0,0,1,0
Entity481,0,0,0,1,0,0,0,1,1,1,0,1,0,0,0,0,1,0,0,0,1,0
Entity482,1,0,0,0,0,0,1,0,1,0,0,1,0,0,0,0,1,0,1,0,1,0
Entity483,0,0,0,1,0,0,0,1,1,1,0,0,1,0,0,1,0,0,0,0,1,0
Entity484,0,0,1,0,0,0,0,1,0,1,1,0,0,0,0,0,1,0,0,0,1,0
Entity485,0,0,1,0,0,0,1,0,1,0,0,0,1,0,0,0,1,0,0,0,1,0
Entity486,0,0,1,0,0,0,0,1,1,0,0,1,0,0,0,0,1,0,0,0,1,0
Entity487,0,0,0,1,0,0,0,1,1,0,0,0,1,0,0,0,1,0,0,0,1,0
Entity488,0,0,0,1,0,0,0,1,1,1,1,0,0,0,0,0,1,0,0,0,1,0
Entity489,0,0,1,0,0,0,1,0,1,1,0,0,1,0,0,1,0,0,0,0,1,0
Entity490,0,0,1,0,0,0,0,1,1,1,0,0,1,0,0,0,0,1,0,0,1,0
Entity491,0,0,0,1,0,0,1,0,1,1,0,0,1,0,0,0,1,0,0,0,1,0
Entity492,0,0,0,1,0,0,0,1,0,0,1,0,0,0,0,0,0,1,0,0,1,0
Entity493,0,0,0,1,0,0,0,1,1,1,1,0,0,0,0,0,0,1,0,0,1,0
Entity494,0,0,0,1,0,0,0,1,1,1,0,1,0,0,0,0,0,1,0,0,1,0
Entity495,0,0,0,1,0,0,0,1,1,1,0,1,0,0,0,0,0,1,0,0,1,0
Entity496,0,0,0,1,0,0,0,1,0,1,1,0,0,0,0,0,0,1,0,0,1,0
Entity497,0,0,0,1,0,0,0,1,1,1,1,0,0,0,0,0,0,1,0,0,1,0
Entity498,0,0,0,1,0,0,0,1,0,1,0,1,0,0,0,0,0,1,0,0,1,0
Entity499,0,0,0,1,0,0,0,1,1,0,1,0,0,0,0,0,0,1,0,0,1,0
Entity500,0,0,0,1,0,0,0,1,1,0,0,1,0,0,0,0,0,1,0,0,1,0
Entity501,0,1,0,0,1,0,0,0,1,1,0,1,0,0,1,0,0,0,0,0,1,0
Entity502,0,0,0,1,0,0,0,1,1,0,1,0,0,0,0,0,1,0,0,0,1,0
Entity503,0,1,0,0,0,0,1,0,1,1,0,0,1,0,0,0,0,1,0,0,1,0
Entity504,0,0,1,0,0,0,1,0,1,1,1,0,0,0,0,1,0,0,0,0,1,0
Entity505,0,1,0,0,0,0,1,0,1,1,1,0,0,0,0,1,0,0,0,0,1,0
Entity506,0,0,0,1,0,0,0,1,1,1,1,0,0,0,0,0,0,1,0,0,1,0
Entity507,0,0,0,1,0,0,0,1,1,1,1,0,0,0,0,1,0,0,0,0,1,0
Entity508,0,0,1,0,0,0,0,1,1,0,1,0,0,0,0,0,1,0,1,0,1,0
Entity509,0,0,0,1,0,0,0,1,0,1,0,0,1,0,0,0,1,0,0,0,1,0
Entity510,0,0,0,1,0,0,0,1,1,0,1,0,0,0,0,0,1,0,0,0,1,0
Entity511,0,0,0,1,0,0,0,1,1,1,1,0,0,0,0,0,0,1,0,0,1,0
Entity512,0,0,1,0,0,0,1,0,1,0,0,0,1,0,0,0,0,1,0,0,1,0
Entity513,0,0,0,1,0,0,0,1,1,0,1,0,0,0,0,0,0,1,0,0,1,0
Entity514,0,0,0,1,0,0,0,1,1,0,0,1,0,0,0,0,0,1,0,0,1,0
Entity515,0,0,0,1,0,0,0,1,1,0,1,0,0,0,0,0,0,1,0,0,1,0
Entity516,0,0,0,1,1,0,0,0,1,1,0,0,1,0,0,0,1,0,0,0,1,0
Entity517,0,0,0,1,0,0,0,1,0,1,0,1,0,0,0,0,0,1,0,0,1,0
Entity518,0,0,0,1,0,0,0,1,1,1,0,0,1,0,0,0,0,1,0,0,1,0
Entity519,0,0,1,0,0,0,0,1,0,1,0,0,1,0,0,0,1,0,0,0,1,0
Entity520,0,1,0,0,0,0,0,1,1,1,0,1,0,0,0,0,1,0,0,0,1,0
Entity521,0,0,1,0,0,0,1,0,1,1,0,1,0,0,0,0,1,0,0,0,1,0
Entity522,0,0,0,1,0,0,0,1,1,1,1,0,0,0,0,0,1,0,0,0,1,0
Entity523,0,0,1,0,1,0,0,0,1,1,0,0,1,0,1,0,0,0,0,0,1,0
Entity524,0,0,1,0,0,0,1,0,1,1,0,0,1,0,0,1,0,0,0,0,1,0
Entity525,0,0,0,1,0,0,0,1,1,1,0,0,1,0,0,0,0,1,0,0,1,0
Entity526,0,0,1,0,0,0,0,1,1,1,0,0,0,1,0,0,0,1,0,0,1,0
Entity527,0,1,0,0,0,0,1,0,1,0,0,1,0,0,1,0,0,0,0,0,1,0
Entity528,0,0,1,0,0,0,1,0,1,1,0,0,1,0,0,0,0,1,0,0,1,0
Entity529,0,0,0,1,0,0,0,1,1,0,1,0,0,0,0,0,1,0,0,0,1,0
Entity530,0,1,0,0,0,1,0,0,1,1,0,1,0,0,0,0,0,1,0,0,1,0
Entity531,0,0,1,0,0,1,0,0,1,1,0,0,1,0,0,1,0,0,0,0,1,0
Entity532,0,0,1,0,0,0,1,0,1,1,0,1,0,0,0,0,1,0,0,0,1,0
Entity533,0,0,0,1,0,0,0,1,1,0,1,0,0,0,0,0,0,1,0,0,1,0
Entity534,0,0,1,0,0,0,0,1,1,0,0,1,0,0,0,0,0,1,0,0,1,0
Entity535,0,0,0,1,0,0,0,1,1,1,0,0,1,0,0,1,0,0,0,0,1,0
Entity536,0,1,0,0,0,0,0,1,1,1,0,0,1,0,0,0,1,0,0,0,1,0
Entity537,0,0,0,1,0,0,0,1,1,0,1,0,0,0,0,0,1,0,0,0,1,0
Entity538,0,0,0,1,0,0,0,1,1,1,0,0,1,0,0,0,0,1,0,0,1,0
Entity539,0,0,1,0,0,0,0,1,1,1,1,0,0,0,0,0,1,0,0,0,1,0
Entity540,0,0,0,1,0,0,0,1,1,1,1,0,0,0,0,0,0,1,0,0,1,0
Entity541,0,0,1,0,0,0,1,0,1,0,0,0,1,0,0,0,0,1,0,0,1,0
Entity542,0,0,0,1,0,0,0,1,1,0,1,0,0,0,0,0,1,0,0,0,1,0
Entity543,0,0,1,0,0,0,0,1,1,1,0,1,0,0,0,1,0,0,0,0,1,0
Entity544,0,0,0,1,0,0,0,1,0,1,0,0,1,0,0,0,1,0,0,0,1,0
Entity545,0,0,0,1,0,0,0,1,1,1,0,0,1,0,0,0,1,0,0,0,1,0
Entity546,0,0,0,1,0,0,0,1,1,1,0,1,0,0,0,0,0,1,0,0,1,0
Entity547,0,0,0,1,0,0,0,1,1,1,1,0,0,0,0,0,0,1,0,0,1,0
Entity548,0,0,0,1,0,0,0,1,0,1,1,0,0,0,0,0,1,0,0,0,1,0
Entity549,0,0,0,1,0,0,0,1,1,1,1,0,0,0,0,0,0,1,0,0,1,0
Entity550,0,0,1,0,0,0,0,1,1,1,1,0,0,0,0,0,1,0,0,0,1,0
Entity551,0,0,0,1,0,0,0,1,1,0,1,0,0,0,0,0,0,1,0,0,1,0
Entity552,0,0,0,1,0,0,0,1,1,1,0,0,1,0,0,0,1,0,0,0,1,0
Entity553,0,0,0,1,0,0,0,1,1,0,0,0,1,0,0,0,1,0,0,0,1,0
Entity554,0,0,0,1,0,0,0,1,1,0,1,0,0,0,0,0,0,1,0,0,1,0
Entity555,0,0,0,1,0,0,0,1,1,1,1,0,0,0,0,0,1,0,0,0,1,0
Entity556,0,1,0,0,0,1,0,0,1,1,0,0,1,0,0,1,0,0,0,0,1,0
Entity557,0,0,1,0,0,0,1,0,1,0,0,0,1,0,0,0,1,0,0,0,1,0
Entity558,0,0,1,0,0,0,0,1,1,1,1,0,0,0,0,0,0,1,0,0,1,0
Entity559,0,0,0,1,0,0,0,1,1,1,0,0,1,0,0,0,0,1,0,0,1,0
Entity560,0,0,0,1,0,0,1,0,1,0,0,0,1,0,0,1,0,0,0,0,1,0
Entity561,0,0,0,1,0,0,0,1,1,0,1,0,0,0,0,0,0,1,0,0,1,0
Entity562,0,0,1,0,0,0,1,0,1,1,1,0,0,0,0,0,0,1,0,0,1,0
Entity563,0,0,1,0,0,0,1,0,1,1,1,0,0,0,0,0,0,1,0,0,1,0
Entity564,0,0,1,0,0,0,0,1,1,1,0,0,1,0,0,1,0,0,1,0,1,0
Entity565,1,0,0,0,1,0,0,0,1,1,0,0,1,0,0,0,1,0,0,0,1,0
Entity566,0,0,0,1,0,0,0,1,1,1,1,0,0,0,0,0,1,0,0,0,1,0
Entity567,0,0,0,1,0,0,0,1,0,0,1,0,0,0,0,0,0,1,0,0,1,0
Entity568,0,0,1,0,0,0,0,1,0,1,0,1,0,0,0,0,1,0,0,0,1,0
Entity569,0,0,1,0,0,0,1,0,1,1,0,1,0,0,0,0,0,1,0,0,1,0
Entity570,0,0,0,1,0,0,0,1,0,0,1,0,0,0,0,0,0,1,0,0,1,0
Entity571,0,0,0,1,0,0,0,1,0,1,0,1,0,0,0,0,0,1,0,0,1,0
Entity572,0,0,0,1,0,0,0,1,1,1,0,1,0,0,1,0,0,0,0,0,1,0
Entity573,0,0,1,0,0,0,0,1,0,0,0,1,0,0,0,0,0,1,0,0,1,0
Entity574,0,1,0,0,0,0,1,0,1,0,0,0,0,1,0,0,0,1,0,0,1,0
Entity575,0,0,0,1,0,0,0,1,0,0,0,1,0,0,0,0,0,1,0,0,1,0
Entity576,0,0,0,1,0,0,0,1,0,0,0,1,0,0,0,0,0,1,0,0,1,0
Entity577,0,0,0,1,0,0,0,1,0,0,0,1,0,0,0,0,0,1,0,0,1,0
Entity578,0,0,0,1,0,0,0,1,0,1,1,0,0,0,0,0,0,1,0,0,1,0
Entity579,0,0,0,1,0,0,0,1,1,1,0,1,0,0,0,0,1,0,0,0,1,0
Entity580,0,0,0,1,0,0,0,1,1,0,1,0,0,0,0,0,1,0,0,0,1,0
Entity581,0,0,0,1,0,0,0,1,1,1,1,0,0,0,0,0,0,1,0,0,1,0
Entity582,0,0,0,1,0,0,0,1,0,1,1,0,0,0,0,0,0,1,0,0,1,0
Entity583,0,0,0,1,0,0,0,1,1,1,1,0,0,0,0,0,1,0,0,0,1,0
Entity584,0,0,0,1,0,0,0,1,1,1,1,0,0,0,0,0,0,1,0,0,1,0
Entity585,0,0,0,1,0,0,0,1,1,0,1,0,0,0,0,0,0,1,0,0,1,0
Entity586,0,0,0,1,0,0,0,1,1,1,1,0,0,0,0,0,0,1,0,0,1,0
Entity587,0,0,0,1,0,0,0,1,1,1,1,0,0,0,0,0,0,1,0,0,1,0
Entity588,0,0,0,1,0,0,1,0,1,1,0,1,0,0,0,0,0,1,0,0,1,0
Entity589,0,0,0,1,0,0,0,1,1,1,0,0,1,0,0,0,0,1,0,0,1,0
Entity590,0,0,0,1,0,0,0,1,1,1,1,0,0,0,0,0,0,1,0,0,1,0
Entity591,0,0,0,1,0,0,0,1,1,1,0,1,0,0,0,0,0,1,0,0,1,0
Entity592,0,0,1,0,0,0,0,1,1,1,0,1,0,0,0,1,0,0,0,0,1,0
Entity593,0,0,1,0,0,0,0,1,1,1,1,0,0,0,0,1,0,0,0,0,1,0
Entity594,0,0,0,1,0,0,0,1,1,0,1,0,0,0,0,0,1,0,0,0,1,0
Entity595,0,0,0,1,0,0,0,1,1,1,1,0,0,0,0,0,0,1,0,0,1,0
Entity596,0,0,0,1,0,0,0,1,1,1,1,0,0,0,0,0,0,1,0,0,1,0
Entity597,0,0,0,1,0,0,0,1,1,1,1,0,0,0,0,0,1,0,0,0,1,0
Entity598,0,0,0,1,0,0,0,1,1,1,1,0,0,0,0,0,0,1,0,0,1,0
Entity599,0,0,0,1,0,0,0,1,1,1,0,1,0,0,0,0,0,1,0,0,1,0
Entity600,0,1,0,0,0,0,0,1,0,0,0,0,1,0,0,0,0,1,1,0,1,0
Entity601,0,0,0,1,0,1,0,0,0,1,1,0,0,0,0,0,1,0,0,0,1,0
Entity602,0,0,0,1,0,0,0,1,0,1,0,0,1,0,0,0,0,1,0,0,1,0
Entity603,0,0,0,1,0,0,0,1,0,1,0,1,0,0,0,0,0,1,0,0,1,0
Entity604,0,0,0,1,0,0,0,1,0,1,1,0,0,0,0,0,0,1,0,0,1,0
Entity605,0,0,1,0,0,0,0,1,0,1,0,0,1,0,0,0,0,1,0,0,1,0
Entity606,0,0,0,1,0,0,0,1,0,1,0,1,0,0,0,0,0,1,0,0,1,0
Entity607,0,0,1,0,0,0,0,1,0,0,0,0,1,0,0,0,0,1,0,0,1,0
Entity608,0,0,1,0,0,0,0,1,0,1,0,1,0,0,0,0,0,1,0,0,1,0
Entity609,0,0,0,1,0,0,0,1,0,1,0,1,0,0,0,0,0,1,0,0,1,0
Entity610,0,0,1,0,0,0,1,0,0,1,0,1,0,0,0,0,0,1,0,0,1,0
Entity611,0,0,0,1,0,0,0,1,0,1,0,1,0,0,0,0,0,1,0,0,1,0
Entity612,0,0,0,1,0,0,0,1,0,0,0,0,1,0,0,0,0,1,0,0,1,0
Entity613,0,0,0,1,0,0,0,1,0,0,0,1,0,0,0,0,0,1,0,0,1,0
Entity614,0,0,0,1,0,0,0,1,0,0,1,0,0,0,0,0,0,1,0,0,1,0
Entity615,0,0,0,1,0,0,0,1,0,1,0,0,1,0,0,0,0,1,0,0,1,0
Entity616,0,0,1,0,0,0,0,1,1,1,0,1,0,0,0,0,0,1,0,0,1,0
Entity617,0,0,0,1,0,0,1,0,1,0,1,0,0,0,0,0,0,1,0,0,1,0
Entity618,0,1,0,0,0,1,0,0,1,1,0,0,1,0,0,0,0,1,0,0,1,0
Entity619,0,0,0,1,0,0,0,1,1,1,0,0,1,0,0,0,0,1,0,0,1,0
Entity620,0,0,0,1,0,0,0,1,1,1,1,0,0,0,0,0,0,1,0,0,1,0
Entity621,0,0,0,1,0,0,0,1,1,1,1,0,0,0,0,0,0,1,0,0,1,0
Entity622,0,0,1,0,0,0,1,0,1,1,0,1,0,0,0,0,1,0,0,0,1,0
Entity623,0,0,0,1,0,0,0,1,1,1,1,0,0,0,0,0,0,1,0,0,1,0
Entity624,0,0,0,1,0,0,0,1,0,1,0,1,0,0,0,0,0,1,0,0,1,0
Entity625,0,0,0,1,0,0,0,1,0,1,1,0,0,0,0,0,0,1,0,0,1,0
Entity626,0,0,0,1,0,0,0,1,1,1,0,1,0,0,0,0,0,1,0,0,1,0
Entity627,0,0,0,1,0,0,0,1,0,0,0,1,0,0,0,0,0,1,0,0,1,0
Entity628,0,0,0,1,0,0,0,1,1,1,1,0,0,0,0,0,0,1,0,0,1,0
Entity629,0,0,0,1,0,0,0,1,0,1,1,0,0,0,0,0,0,1,0,0,1,0
Entity630,0,0,0,1,0,0,0,1,1,1,1,0,0,0,0,0,0,1,0,0,1,0
Entity631,0,0,0,1,0,0,0,1,1,1,1,0,0,0,0,0,0,1,0,0,1,0
Entity632,0,0,0,1,0,0,0,1,1,1,1,0,0,0,0,0,0,1,0,0,1,0
Entity633,0,0,0,1,0,0,0,1,0,1,1,0,0,0,0,0,0,1,0,0,1,0
Entity634,0,0,0,1,0,0,0,1,1,0,1,0,0,0,0,0,0,1,0,0,1,0
Entity635,0,0,1,0,0,0,1,0,1,1,0,0,1,0,0,0,0,1,0,0,1,0
Entity636,0,0,1,0,0,0,1,0,1,1,0,0,1,0,0,0,0,1,0,0,1,0
Entity637,0,1,0,0,0,1,0,0,1,1,0,1,0,0,0,1,0,0,0,0,1,0
Entity638,0,0,1,0,0,1,0,0,1,1,0,1,0,0,0,0,0,1,0,0,1,0
Entity639,1,0,0,0,1,0,0,0,1,1,0,0,1,0,0,0,0,1,1,0,1,0
Entity640,0,1,0,0,0,0,0,1,1,1,1,0,0,0,0,0,0,1,1,0,1,0
Entity641,0,0,1,0,0,0,0,1,1,1,1,0,0,0,0,1,0,0,1,0,1,0
Entity642,0,0,0,1,0,0,0,1,1,0,1,0,0,0,0,0,0,1,0,0,1,0
Entity643,0,0,1,0,0,0,1,0,1,1,0,0,1,0,0,0,0,1,0,0,0,1
Entity644,0,1,0,0,0,1,0,0,1,1,0,0,1,0,1,0,0,0,0,0,0,1
Entity645,0,0,1,0,0,0,0,1,1,1,1,0,0,0,0,1,0,0,0,0,0,1
Entity646,0,1,0,0,0,1,0,0,1,1,0,0,1,0,1,0,0,0,0,0,0,1
Entity647,0,0,0,1,0,0,0,1,1,0,1,0,0,0,0,0,0,1,0,0,0,1
Entity648,0,0,0,1,0,0,0,1,1,0,1,0,0,0,0,0,0,1,0,0,0,1
Entity649,0,1,0,0,0,1,0,0,1,1,0,0,1,0,0,1,0,0,0,0,0,1
Entity650,1,0,0,0,0,1,0,0,1,1,0,1,0,0,0,0,1,0,0,0,0,1
Entity651,0,1,0,0,0,0,0,1,1,1,1,0,0,0,0,0,0,1,0,0,0,1
Entity652,0,0,1,0,0,0,1,0,1,1,0,0,1,0,0,0,1,0,0,0,0,1
Entity653,0,1,0,0,0,1,0,0,1,1,0,1,0,0,0,0,0,1,0,0,0,1
Entity654,0,0,0,1,0,0,0,1,1,1,1,0,0,0,0,0,0,1,0,0,0,1
Entity655,0,1,0,0,0,0,0,1,1,0,0,0,1,0,0,0,1,0,0,0,0,1
Entity656,0,0,0,1,0,0,0,1,1,1,0,0,1,0,0,0,0,1,0,0,0,1
Entity657,0,0,1,0,0,0,0,1,1,1,1,0,0,0,0,0,1,0,0,0,0,1
Entity658,0,0,0,1,0,0,0,1,1,1,0,0,1,0,0,1,0,0,0,0,0,1
Entity659,0,1,0,0,0,0,1,0,1,0,0,1,0,0,0,0,1,0,0,0,0,1
Entity660,0,0,1,0,0,0,1,0,1,0,0,0,1,0,0,0,1,0,0,0,0,1
Entity661,0,1,0,0,0,0,1,0,1,1,0,0,1,0,1,0,0,0,0,0,0,1
Entity662,0,0,0,1,0,0,0,1,1,1,1,0,0,0,0,0,0,1,0,0,0,1
Entity663,0,0,0,1,0,0,0,1,1,1,0,1,0,0,0,0,0,1,0,0,0,1
Entity664,0,0,0,1,0,0,0,1,1,1,1,0,0,0,0,0,0,1,0,0,0,1
Entity665,1,0,0,0,0,0,0,1,1,1,0,0,0,1,0,0,0,1,1,0,0,1
Entity666,0,0,1,0,0,0,0,1,1,1,0,0,1,0,0,0,0,1,0,0,0,1
Entity667,0,0,1,0,0,0,0,1,1,0,0,1,0,0,0,0,0,1,0,0,0,1
Entity668,0,1,0,0,0,0,0,1,1,1,0,0,0,1,0,0,0,1,0,0,0,1
Entity669,0,1,0,0,0,0,0,1,1,1,0,1,0,0,0,0,0,1,0,0,0,1
Entity670,0,1,0,0,0,0,1,0,1,0,0,0,1,0,0,0,1,0,0,0,0,1
Entity671,0,0,1,0,0,0,1,0,1,1,0,1,0,0,0,0,0,1,0,0,0,1
Entity672,0,1,0,0,0,0,0,1,1,1,0,0,1,0,0,0,0,1,0,0,0,1
Entity673,0,0,1,0,0,0,1,0,1,1,0,0,1,0,0,0,1,0,0,0,0,1
Entity674,1,0,0,0,0,0,1,0,1,1,0,0,1,0,0,1,0,0,0,0,0,1
Entity675,0,0,1,0,0,0,0,1,1,1,1,0,0,0,0,0,1,0,0,0,0,1
Entity676,0,0,0,1,0,0,1,0,1,1,1,0,0,0,0,0,0,1,0,0,0,1
Entity677,0,0,0,1,0,0,0,1,1,1,1,0,0,0,0,0,0,1,0,0,0,1
Entity678,0,0,1,0,0,0,1,0,1,1,0,0,1,0,0,0,0,1,0,0,0,1
Entity679,0,0,1,0,0,0,0,1,1,1,1,0,0,0,0,0,0,1,0,0,0,1
Entity680,0,1,0,0,0,1,0,0,1,1,0,1,0,0,1,0,0,0,0,0,0,1
Entity681,0,1,0,0,0,0,0,1,1,1,0,1,0,0,1,0,0,0,0,0,0,1
Entity682,0,0,0,1,0,0,1,0,1,1,0,1,0,0,0,1,0,0,0,0,0,1
Entity683,0,0,0,1,0,0,0,1,1,1,1,0,0,0,0,0,0,1,0,0,0,1
Entity684,0,0,0,1,0,0,0,1,0,1,1,0,0,0,0,0,0,1,0,0,0,1
Entity685,0,0,0,1,0,0,0,1,0,0,1,0,0,0,0,0,0,1,0,0,0,1
Entity686,0,0,1,0,0,0,1,0,1,1,0,0,1,0,0,0,1,0,0,0,0,1
Entity687,0,0,1,0,0,0,1,0,1,1,0,0,1,0,0,0,1,0,0,0,0,1
Entity688,0,0,0,1,0,0,0,1,0,1,1,0,0,0,0,1,0,0,1,0,0,1
Entity689,0,0,0,1,0,0,0,1,0,1,1,0,0,0,0,0,0,1,0,0,0,1
Entity690,0,0,0,1,0,0,0,1,1,1,0,0,1,0,0,0,1,0,0,0,0,1
Entity691,0,0,1,0,0,0,0,1,1,1,0,0,1,0,0,1,0,0,0,0,0,1
Entity692,0,1,0,0,0,0,0,1,1,1,0,0,1,0,0,0,1,0,0,0,0,1
Entity693,0,0,0,1,0,0,0,1,1,1,1,0,0,0,0,0,1,0,0,0,0,1
Entity694,0,1,0,0,0,0,1,0,1,1,0,1,0,0,0,0,1,0,0,0,0,1
Entity695,0,1,0,0,0,0,0,1,1,1,0,0,1,0,0,0,0,1,0,0,0,1
Entity696,0,0,0,1,0,0,0,1,1,1,0,1,0,0,0,0,1,0,0,0,0,1
Entity697,0,0,0,1,0,0,0,1,1,1,0,1,0,0,0,0,0,1,0,0,0,1
Entity698,0,0,1,0,0,0,0,1,1,1,0,0,1,0,0,1,0,0,0,0,0,1
Entity699,0,0,0,1,0,0,0,1,1,1,1,0,0,0,0,0,0,1,0,0,0,1
Entity700,0,0,0,1,0,0,1,0,1,0,0,1,0,0,0,1,0,0,0,0,0,1
Entity701,0,0,0,1,0,0,0,1,1,1,0,0,1,0,1,0,0,0,0,0,0,1
Entity702,0,1,0,0,0,0,1,0,1,1,0,0,1,0,0,0,1,0,0,0,0,1
Entity703,1,0,0,0,0,1,0,0,1,0,1,0,0,0,0,1,0,0,0,0,0,1
Entity704,0,1,0,0,0,0,1,0,1,1,0,1,0,0,1,0,0,0,0,0,0,1
Entity705,0,0,1,0,0,1,0,0,1,1,0,1,0,0,1,0,0,0,0,0,0,1
Entity706,0,1,0,0,0,0,1,0,1,1,0,1,0,0,1,0,0,0,0,0,0,1
Entity707,0,0,1,0,0,0,0,1,1,0,0,1,0,0,0,0,0,1,0,0,0,1
Entity708,0,0,1,0,0,0,1,0,1,1,0,1,0,0,0,0,1,0,0,0,0,1
Entity709,0,0,0,1,0,0,0,1,1,1,1,0,0,0,0,0,0,1,0,0,0,1
Entity710,0,0,0,1,0,0,1,0,1,1,0,0,1,0,0,0,1,0,0,0,0,1
Entity711,0,1,0,0,0,0,1,0,1,1,0,0,1,0,0,1,0,0,0,0,0,1
Entity712,0,0,1,0,0,0,0,1,1,1,1,0,0,0,0,0,1,0,0,0,0,1
Entity713,0,0,1,0,0,0,1,0,1,1,0,1,0,0,1,0,0,0,1,0,0,1
Entity714,0,0,0,1,0,0,0,1,1,1,0,0,1,0,0,0,0,1,0,0,0,1
Entity715,0,0,1,0,0,0,1,0,1,1,0,0,1,0,0,0,0,1,0,0,0,1
Entity716,0,0,1,0,0,0,1,0,1,0,0,0,1,0,0,0,1,0,0,0,0,1
Entity717,0,1,0,0,0,0,0,1,1,1,0,0,1,0,0,0,1,0,0,0,0,1
Entity718,0,0,0,1,0,0,0,1,1,1,1,0,0,0,0,0,0,1,0,0,0,1
Entity719,0,0,0,1,0,0,0,1,0,1,1,0,0,0,0,0,0,1,0,0,0,1
Entity720,0,0,0,1,0,0,0,1,1,1,1,0,0,0,0,0,0,1,0,0,0,1
Entity721,0,0,0,1,0,0,0,1,0,1,1,0,0,0,0,0,0,1,0,0,0,1
Entity722,0,0,0,1,0,0,0,1,1,1,1,0,0,0,0,0,0,1,0,0,0,1
Entity723,0,0,1,0,0,0,0,1,1,0,1,0,0,0,0,0,0,1,0,0,0,1
Entity724,0,0,0,1,0,0,0,1,1,1,0,1,0,0,0,0,1,0,0,0,0,1
Entity725,0,0,0,1,0,0,0,1,1,1,1,0,0,0,0,0,0,1,0,0,0,1
Entity726,0,0,0,1,0,0,0,1,0,1,0,0,1,0,0,0,1,0,0,0,0,1
Entity727,0,0,0,1,0,0,0,1,1,1,1,0,0,0,0,0,1,0,0,0,0,1
Entity728,0,1,0,0,0,0,1,0,1,0,0,0,1,0,0,1,0,0,0,0,0,1
Entity729,0,0,0,1,0,0,0,1,1,1,0,0,1,0,0,0,1,0,0,0,0,1
Entity730,0,0,0,1,0,0,0,1,1,1,1,0,0,0,0,0,1,0,0,0,0,1
Entity731,0,0,0,1,0,0,0,1,1,0,0,1,0,0,0,1,0,0,0,0,0,1
Entity732,1,0,0,0,0,1,0,0,1,1,0,1,0,0,1,0,0,0,0,0,0,1
Entity733,0,0,1,0,0,0,1,0,0,1,0,0,1,0,1,0,0,0,0,0,0,1
Entity734,0,1,0,0,0,0,0,1,1,1,0,1,0,0,0,0,1,0,0,0,0,1
Entity735,0,1,0,0,0,1,0,0,1,0,0,1,0,0,0,0,1,0,0,0,0,1
Entity736,0,1,0,0,0,1,0,0,1,1,0,0,1,0,0,0,0,1,0,0,0,1
Entity737,0,0,1,0,0,0,1,0,1,1,0,1,0,0,0,0,1,0,0,0,0,1
Entity738,0,1,0,0,0,1,0,0,1,1,0,0,1,0,0,0,1,0,0,0,0,1
Entity739,0,0,0,1,0,0,0,1,0,0,1,0,0,0,0,0,0,1,0,0,0,1
Entity740,0,0,0,1,0,0,0,1,1,0,1,0,0,0,0,0,1,0,0,0,0,1
Entity741,1,0,0,0,0,0,1,0,1,1,0,0,1,0,0,0,1,0,0,0,0,1
Entity742,0,0,1,0,0,0,0,1,1,1,0,1,0,0,0,0,1,0,0,0,0,1
Entity743,0,1,0,0,0,0,0,1,1,1,0,1,0,0,0,0,1,0,0,0,0,1
Entity744,0,1,0,0,0,0,0,1,1,1,0,0,1,0,0,0,1,0,0,0,0,1
Entity745,0,0,0,1,0,0,0,1,1,1,0,0,1,0,0,1,0,0,0,0,0,1
Entity746,0,0,1,0,0,0,0,1,1,1,0,1,0,0,0,0,1,0,0,0,0,1
Entity747,0,1,0,0,0,0,1,0,1,1,0,0,1,0,0,0,1,0,0,0,0,1
Entity748,0,0,0,1,0,0,0,1,1,1,1,0,0,0,0,0,0,1,0,0,0,1
Entity749,0,0,1,0,0,0,0,1,1,1,1,0,0,0,0,0,0,1,0,0,0,1
Entity750,0,0,0,1,0,0,0,1,1,1,0,0,1,0,0,0,0,1,0,0,0,1
Entity751,0,1,0,0,0,0,0,1,1,1,1,0,0,0,0,0,0,1,0,0,0,1
Entity752,0,0,0,1,0,0,0,1,1,1,1,0,0,0,0,0,0,1,0,0,0,1
Entity753,0,0,0,1,0,0,0,1,1,1,0,1,0,0,0,0,0,1,0,0,0,1
Entity754,0,0,1,0,0,0,0,1,1,1,0,0,1,0,0,0,1,0,0,0,0,1
Entity755,0,1,0,0,0,0,1,0,1,1,0,1,0,0,1,0,0,0,0,0,0,1
Entity756,0,0,0,1,0,0,0,1,1,1,1,0,0,0,0,0,0,1,0,0,0,1
Entity757,0,0,0,1,0,0,0,1,1,1,1,0,0,0,0,0,0,1,0,0,0,1
Entity758,0,0,0,1,0,0,0,1,1,1,0,0,1,0,0,0,1,0,0,0,0,1
Entity759,0,0,1,0,0,0,0,1,1,1,0,1,0,0,0,0,1,0,0,0,0,1
Entity760,0,0,0,1,0,0,0,1,1,1,1,0,0,0,0,0,1,0,0,0,0,1
Entity761,0,0,0,1,0,0,0,1,1,1,0,0,1,0,0,0,1,0,0,0,0,1
Entity762,0,0,1,0,0,0,1,0,1,1,1,0,0,0,0,0,1,0,0,0,0,1
Entity763,0,1,0,0,0,1,0,0,1,0,0,1,0,0,0,0,0,1,0,0,0,1
Entity764,0,0,1,0,0,0,0,1,1,1,0,1,0,0,0,0,1,0,0,0,0,1
Entity765,0,0,1,0,0,0,1,0,1,1,0,0,1,0,0,0,1,0,0,0,0,1
Entity766,0,0,1,0,0,0,0,1,1,1,0,0,1,0,0,0,1,0,0,0,0,1
Entity767,0,0,0,1,0,0,0,1,1,1,0,1,0,0,0,0,1,0,0,0,0,1
Entity768,0,0,0,1,0,0,0,1,1,1,0,1,0,0,0,0,0,1,0,0,0,1
Entity769,0,0,0,1,0,0,0,1,0,1,1,0,0,0,0,0,0,1,0,0,0,1
Entity770,0,0,0,1,0,0,0,1,1,1,1,0,0,0,0,0,0,1,0,0,0,1
Entity771,0,0,0,1,0,0,0,1,1,1,0,0,1,0,0,0,0,1,0,0,0,1
Entity772,0,0,0,1,0,0,0,1,1,1,1,0,0,0,0,0,1,0,0,0,0,1
Entity773,0,0,0,1,0,0,0,1,0,1,1,0,0,0,0,0,1,0,0,0,0,1
Entity774,0,0,1,0,0,0,0,1,1,1,0,0,1,0,0,0,1,0,0,0,0,1
Entity775,0,0,0,1,0,0,0,1,1,0,0,0,1,0,0,0,0,1,0,0,0,1
Entity776,0,0,1,0,0,0,0,1,1,0,1,0,0,0,0,0,0,1,0,0,0,1
Entity777,0,0,0,1,0,0,1,0,1,1,0,0,1,0,0,0,0,1,0,0,0,1
Entity778,0,0,0,1,0,0,0,1,1,0,1,0,0,0,0,0,0,1,0,0,0,1
Entity779,0,0,0,1,0,0,0,1,0,0,1,0,0,0,0,0,1,0,0,0,0,1
Entity780,0,0,0,1,0,0,0,1,1,0,1,0,0,0,0,0,0,1,0,0,0,1
Entity781,0,0,0,1,0,0,0,1,1,1,1,0,0,0,0,0,1,0,0,0,0,1
Entity782,0,0,0,1,0,0,0,1,1,1,0,1,0,0,0,0,0,1,0,0,0,1
Entity783,0,0,0,1,0,0,0,1,1,1,1,0,0,0,0,0,0,1,0,0,0,1
Entity784,0,0,0,1,0,0,0,1,1,1,0,1,0,0,0,0,0,1,0,0,0,1
Entity785,0,0,0,1,0,0,0,1,1,1,1,0,0,0,0,0,0,1,0,0,0,1
Entity786,0,0,1,0,0,0,1,0,1,1,0,1,0,0,0,1,0,0,0,0,0,1
Entity787,1,0,0,0,0,0,1,0,1,1,0,0,1,0,1,0,0,0,0,0,0,1
Entity788,0,1,0,0,0,1,0,0,1,1,0,1,0,0,0,0,1,0,0,0,0,1
Entity789,0,0,1,0,0,0,0,1,1,1,0,1,0,0,0,0,1,0,0,0,0,1
Entity790,0,1,0,0,0,1,0,0,1,1,0,0,1,0,0,1,0,0,1,0,0,1
Entity791,0,0,0,1,0,0,0,1,1,1,1,0,0,0,0,0,0,1,0,0,0,1
Entity792,0,0,1,0,0,0,0,1,1,1,0,0,1,0,1,0,0,0,0,0,0,1
Entity793,0,0,1,0,0,0,1,0,1,0,0,0,1,0,0,1,0,0,0,0,0,1
Entity794,0,0,1,0,0,0,0,1,1,0,1,0,0,0,0,0,0,1,0,0,0,1
Entity795,0,0,1,0,0,0,1,0,1,0,0,1,0,0,1,0,0,0,0,0,0,1
Entity796,0,0,0,1,0,0,0,1,1,1,1,0,0,0,0,0,0,1,0,0,0,1
Entity797,0,0,0,1,0,0,0,1,1,1,0,1,0,0,0,0,0,1,0,0,0,1
Entity798,0,0,0,1,0,0,0,1,0,0,1,0,0,0,0,0,1,0,0,0,0,1
Entity799,0,0,1,0,0,0,1,0,1,1,0,1,0,0,1,0,0,0,0,0,0,1
Entity800,0,0,0,1,0,0,0,1,1,1,0,1,0,0,0,0,0,1,0,0,0,1
Entity801,0,1,0,0,0,1,0,0,1,1,0,1,0,0,1,0,0,0,0,0,0,1
Entity802,0,1,0,0,0,1,0,0,1,1,0,0,0,1,0,0,1,0,0,0,0,1
Entity803,0,1,0,0,0,0,1,0,1,0,0,0,1,0,1,0,0,0,0,0,0,1
Entity804,0,1,0,0,0,0,1,0,1,1,0,0,1,0,1,0,0,0,0,0,0,1
Entity805,0,1,0,0,0,1,0,0,1,1,0,0,1,0,0,0,0,1,0,0,0,1
Entity806,0,1,0,0,0,0,0,1,1,1,0,0,1,0,0,0,0,1,0,0,0,1
Entity807,0,0,0,1,0,0,0,1,1,0,1,0,0,0,0,0,0,1,0,0,0,1
Entity808,0,1,0,0,0,0,1,0,1,1,0,0,1,0,0,0,1,0,0,0,0,1
Entity809,0,1,0,0,0,0,0,1,1,0,0,1,0,0,0,0,0,1,0,0,0,1
Entity810,0,0,1,0,0,0,1,0,1,1,0,1,0,0,0,1,0,0,0,0,0,1
Entity811,0,0,1,0,0,0,1,0,1,1,0,1,0,0,1,0,0,0,0,0,0,1
Entity812,1,0,0,0,0,1,0,0,1,1,0,1,0,0,0,1,0,0,1,0,0,1
Entity813,0,0,1,0,0,0,1,0,1,1,0,0,1,0,0,1,0,0,0,0,0,1
Entity814,0,0,1,0,0,0,0,1,1,1,1,0,0,0,0,0,1,0,0,0,0,1
Entity815,0,0,1,0,0,0,0,1,1,1,0,1,0,0,1,0,0,0,0,0,0,1
Entity816,0,1,0,0,0,0,0,1,1,1,0,0,1,0,0,0,1,0,0,0,0,1
Entity817,0,0,1,0,0,0,1,0,1,1,0,0,1,0,0,1,0,0,0,0,0,1
Entity818,0,0,0,1,0,0,0,1,1,1,0,0,1,0,0,0,1,0,0,0,0,1
Entity819,0,1,0,0,0,0,0,1,1,1,0,0,1,0,0,1,0,0,0,0,0,1
Entity820,1,0,0,0,0,0,1,0,1,1,0,0,1,0,0,0,0,1,0,0,0,1
Entity821,1,0,0,0,1,0,0,0,1,1,0,0,0,1,0,1,0,0,1,0,0,1
Entity822,0,0,1,0,0,0,0,1,1,1,0,0,1,0,0,0,1,0,0,0,0,1
Entity823,0,0,1,0,0,0,0,1,1,1,0,1,0,0,0,0,1,0,0,0,0,1
Entity824,0,0,1,0,0,0,1,0,1,1,0,0,1,0,1,0,0,0,0,0,0,1
Entity825,0,0,1,0,0,0,0,1,1,1,1,0,0,0,0,1,0,0,0,0,0,1
Entity826,1,0,0,0,0,0,1,0,1,1,0,0,1,0,0,0,1,0,0,0,0,1
Entity827,0,0,1,0,0,0,0,1,1,1,1,0,0,0,0,0,1,0,0,0,0,1
Entity828,0,0,1,0,0,0,1,0,1,1,0,0,1,0,0,0,1,0,0,0,0,1
Entity829,0,0,0,1,0,0,0,1,1,1,1,0,0,0,0,0,0,1,0,0,0,1
Entity830,0,0,0,1,0,0,0,1,1,0,0,1,0,0,0,0,0,1,0,0,0,1
Entity831,0,0,0,1,0,0,0,1,1,1,0,1,0,0,0,0,0,1,0,0,0,1
Entity832,0,1,0,0,0,0,1,0,1,1,0,1,0,0,0,0,0,1,0,0,0,1
Entity833,0,0,1,0,0,0,0,1,1,1,0,0,1,0,0,0,1,0,0,0,0,1
Entity834,0,0,1,0,0,0,1,0,1,1,0,0,1,0,0,0,1,0,0,0,0,1
Entity835,1,0,0,0,0,0,0,1,1,1,0,1,0,0,1,0,0,0,0,0,0,1
Entity836,0,1,0,0,0,0,0,1,1,1,0,1,0,0,0,0,1,0,0,0,0,1
Entity837,0,0,0,1,0,0,0,1,1,1,0,0,1,0,0,0,0,1,1,0,0,1
Entity838,0,1,0,0,0,0,1,0,1,1,0,1,0,0,0,0,1,0,0,0,0,1
Entity839,0,0,0,1,0,0,0,1,1,0,0,0,1,0,0,0,0,1,0,0,0,1
Entity840,0,0,1,0,0,0,1,0,1,1,0,1,0,0,1,0,0,0,0,0,0,1
Entity841,0,0,0,1,0,0,1,0,1,1,0,1,0,0,0,0,0,1,0,0,0,1
Entity842,1,0,0,0,0,0,0,1,1,1,0,0,1,0,0,0,0,1,1,0,0,1
Entity843,0,0,0,1,0,0,0,1,1,0,0,1,0,0,0,0,0,1,0,0,0,1
Entity844,0,0,1,0,0,0,0,1,1,1,0,0,1,0,0,0,0,1,0,0,0,1
Entity845,0,0,1,0,0,0,0,1,1,1,0,0,1,0,0,0,0,1,0,0,0,1
Entity846,0,1,0,0,0,0,1,0,1,0,0,1,0,0,0,1,0,0,0,0,0,1
Entity847,1,0,0,0,0,1,0,0,1,1,0,0,1,0,1,0,0,0,1,0,0,1
Entity848,0,0,1,0,0,0,1,0,1,1,0,1,0,0,1,0,0,0,0,0,0,1
Entity849,0,1,0,0,0,0,1,0,1,1,0,1,0,0,0,0,0,1,0,0,0,1
Entity850,0,1,0,0,0,0,1,0,1,1,0,1,0,0,0,0,0,1,0,0,0,1
Entity851,0,1,0,0,0,1,0,0,1,1,0,0,1,0,0,0,0,1,0,0,0,1
Entity852,0,0,0,1,0,0,0,1,1,1,1,0,0,0,0,0,0,1,0,0,0,1
Entity853,0,0,1,0,0,0,1,0,1,1,0,0,1,0,0,0,0,1,0,0,0,1
Entity854,0,0,1,0,0,0,0,1,1,0,1,0,0,0,0,0,0,1,0,0,0,1
Entity855,0,0,1,0,0,0,1,0,1,1,0,0,1,0,0,0,1,0,0,0,0,1
Entity856,0,0,1,0,0,0,0,1,1,1,0,0,1,0,0,0,1,0,0,0,0,1
Entity857,0,1,0,0,0,0,1,0,1,1,0,0,1,0,0,0,0,1,0,0,0,1
Entity858,0,0,0,1,0,0,0,1,0,1,0,0,1,0,0,0,0,1,0,0,0,1
Entity859,0,1,0,0,0,0,0,1,1,1,0,0,1,0,0,1,0,0,0,0,0,1
Entity860,0,0,1,0,0,0,0,1,1,1,0,0,1,0,0,0,1,0,0,0,0,1
Entity861,0,0,1,0,0,0,0,1,1,1,0,0,1,0,0,1,0,0,0,0,0,1
Entity862,0,0,1,0,0,0,0,1,1,1,0,0,1,0,0,1,0,0,0,0,0,1
Entity863,0,0,1,0,0,1,0,0,1,0,0,0,1,0,0,1,0,0,0,0,0,1
Entity864,0,0,0,1,0,0,1,0,1,1,0,0,1,0,0,0,0,1,0,0,0,1
Entity865,1,0,0,0,0,0,0,1,1,1,0,0,1,0,0,1,0,0,0,0,0,1
Entity866,0,1,0,0,0,0,1,0,1,1,0,0,1,0,1,0,0,0,0,0,0,1
Entity867,1,0,0,0,0,1,0,0,1,0,0,0,1,0,0,1,0,0,0,0,0,1
Entity868,1,0,0,0,0,1,0,0,1,1,0,0,1,0,0,1,0,0,1,0,0,1
Entity869,0,0,0,1,0,0,0,1,1,1,0,0,1,0,0,0,1,0,0,0,0,1
Entity870,0,0,1,0,0,0,0,1,1,1,0,1,0,0,0,0,0,1,0,0,0,1
Entity871,0,0,0,1,0,0,0,1,1,1,0,0,1,0,0,1,0,0,0,0,0,1
Entity872,0,1,0,0,0,0,0,1,1,1,0,0,1,0,0,0,0,1,0,0,0,1
Entity873,0,0,1,0,0,0,1,0,1,1,0,0,1,0,0,0,1,0,0,0,0,1
Entity874,0,1,0,0,0,0,1,0,1,1,0,0,1,0,0,0,1,0,0,0,0,1
Entity875,0,0,0,1,0,0,1,0,1,1,0,0,1,0,0,0,1,0,0,0,0,1
Entity876,0,0,0,1,0,0,0,1,1,0,1,0,0,0,0,0,0,1,0,0,0,1
Entity877,0,0,1,0,0,0,0,1,1,0,1,0,0,0,0,0,1,0,0,0,0,1
Entity878,0,0,0,1,0,0,0,1,1,1,1,0,0,0,0,0,0,1,0,0,0,1
Entity879,0,0,0,1,0,0,0,1,1,1,0,0,1,0,0,0,0,1,0,0,0,1
Entity880,0,0,1,0,0,0,0,1,1,1,1,0,0,0,0,0,0,1,0,0,0,1
Entity881,0,0,1,0,0,0,0,1,1,1,0,0,1,0,0,1,0,0,0,0,0,1
Entity882,1,0,0,0,0,0,1,0,1,1,0,0,1,0,0,0,1,0,1,0,0,1
Entity883,0,0,1,0,0,0,0,1,1,1,0,0,1,0,0,0,1,0,0,0,0,1
Entity884,0,0,1,0,0,0,1,0,1,1,0,0,1,0,0,0,1,0,0,0,0,1
Entity885,0,0,1,0,0,0,0,1,0,0,1,0,0,0,0,0,0,1,0,0,0,1
Entity886,0,0,1,0,0,1,0,0,1,1,0,0,1,0,0,0,1,0,0,0,0,1
Entity887,0,0,1,0,0,0,1,0,0,1,0,1,0,0,0,0,1,0,0,0,0,1
Entity888,0,0,0,1,0,0,0,1,0,0,0,1,0,0,0,0,0,1,0,0,0,1
Entity889,0,0,1,0,0,0,0,1,1,0,0,0,1,0,0,0,0,1,0,0,0,1
Entity890,0,0,0,1,0,0,0,1,1,1,0,1,0,0,0,0,1,0,0,0,0,1
Entity891,0,0,1,0,0,0,0,1,1,1,0,0,1,0,0,1,0,0,0,0,0,1
Entity892,0,0,0,1,0,0,0,1,0,0,0,0,1,0,0,0,1,0,0,0,0,1
Entity893,0,1,0,0,0,0,0,1,1,1,0,0,1,0,0,0,1,0,0,0,0,1
Entity894,0,0,1,0,0,0,1,0,0,1,0,0,1,0,0,0,0,1,0,0,0,1
Entity895,0,0,0,1,0,0,1,0,0,1,0,0,1,0,0,0,0,1,0,0,0,1
Entity896,0,1,0,0,0,1,0,0,0,1,0,0,1,0,0,1,0,0,0,0,0,1
Entity897,0,0,0,1,0,0,0,1,0,1,0,0,1,0,0,0,0,1,0,0,0,1
Entity898,0,0,0,1,0,0,1,0,1,1,1,0,0,0,0,0,1,0,0,0,0,1
Entity899,0,0,0,1,0,0,0,1,1,0,1,0,0,0,0,0,0,1,0,0,0,1
Entity900,0,0,0,1,0,0,0,1,1,1,1,0,0,0,0,0,0,1,0,0,0,1
Entity901,0,0,1,0,0,0,1,0,1,1,0,1,0,0,0,1,0,0,0,0,0,1
Entity902,0,0,1,0,0,0,0,1,1,1,1,0,0,0,0,1,0,0,0,0,0,1
Entity903,0,0,1,0,0,0,0,1,1,1,1,0,0,0,0,0,1,0,0,0,0,1
Entity904,0,0,0,1,0,0,0,1,0,1,0,0,1,0,1,0,0,0,0,0,0,1
Entity905,1,0,0,0,0,1,0,0,1,1,0,1,0,0,0,0,1,0,0,0,0,1
Entity906,1,0,0,0,0,0,1,0,1,1,0,0,1,0,0,1,0,0,0,0,0,1
Entity907,0,0,0,1,0,0,0,1,1,1,0,1,0,0,0,0,1,0,0,0,0,1
Entity908,0,0,1,0,0,0,1,0,1,1,0,1,0,0,0,0,1,0,0,0,0,1
Entity909,0,0,0,1,0,0,0,1,1,0,0,0,1,0,0,0,1,0,0,0,0,1
Entity910,0,0,1,0,0,0,1,0,1,1,0,0,1,0,1,0,0,0,1,0,0,1
Entity911,1,0,0,0,0,0,1,0,1,1,0,0,1,0,0,0,1,0,0,0,0,1
Entity912,0,1,0,0,0,0,0,1,1,1,0,0,1,0,0,0,0,1,0,0,0,1
Entity913,0,1,0,0,0,0,1,0,1,1,0,0,1,0,0,0,1,0,0,0,0,1
Entity914,0,0,0,1,0,0,0,1,1,1,1,0,0,0,0,0,0,1,0,0,0,1
Entity915,0,0,0,1,0,0,0,1,0,0,0,1,0,0,0,0,0,1,0,0,0,1
Entity916,0,0,0,1,0,0,0,1,1,1,1,0,0,0,0,0,1,0,0,0,0,1
Entity917,0,0,0,1,0,0,0,1,1,0,1,0,0,0,0,0,0,1,0,0,0,1
Entity918,0,0,1,0,0,0,0,1,0,1,0,0,1,0,0,0,0,1,0,0,0,1
Entity919,0,0,0,1,0,0,0,1,1,1,0,0,0,1,0,0,1,0,0,0,0,1
Entity920,0,0,0,1,0,0,0,1,1,1,1,0,0,0,0,0,0,1,0,0,0,1
Entity921,0,0,0,1,0,0,0,1,1,1,0,0,1,0,0,1,0,0,0,0,0,1
Entity922,0,0,1,0,0,0,0,1,0,1,0,0,1,0,0,0,1,0,0,0,0,1
Entity923,1,0,0,0,0,1,0,0,1,1,0,1,0,0,0,1,0,0,1,0,0,1
Entity924,0,1,0,0,0,1,0,0,1,1,0,0,1,0,0,1,0,0,0,0,0,1
Entity925,1,0,0,0,0,1,0,0,0,1,0,1,0,0,0,0,1,0,0,0,0,1
Entity926,0,0,1,0,0,0,0,1,0,1,0,0,1,0,0,0,0,1,0,0,0,1
Entity927,0,1,0,0,0,0,1,0,0,0,0,0,1,0,0,0,0,1,0,0,0,1
Entity928,1,0,0,0,0,1,0,0,1,1,0,0,1,0,0,0,1,0,0,0,0,1
Entity929,0,0,0,1,0,0,0,1,0,1,0,0,1,0,0,0,0,1,0,0,0,1
Entity930,0,0,1,0,0,0,0,1,0,1,0,0,1,0,0,0,0,1,0,0,0,1
Entity931,0,0,1,0,0,0,0,1,0,1,0,1,0,0,0,0,0,1,0,0,0,1
Entity932,0,0,0,1,0,0,0,1,0,1,0,0,1,0,0,0,0,1,0,0,0,1
Entity933,0,1,0,0,0,0,1,0,1,1,0,0,1,0,0,1,0,0,0,0,0,1
Entity934,0,0,0,1,0,0,0,1,0,1,0,1,0,0,0,0,0,1,0,0,0,1
Entity935,0,0,0,1,0,0,0,1,0,1,1,0,0,0,0,0,0,1,0,0,0,1
Entity936,0,0,0,1,0,0,1,0,0,1,0,1,0,0,0,0,0,1,0,0,0,1
Entity937,0,0,1,0,0,0,1,0,0,0,0,0,1,0,0,0,0,1,0,0,0,1
Entity938,0,0,0,1,0,0,0,1,0,0,0,0,1,0,0,0,0,1,0,0,0,1
Entity939,0,0,1,0,0,0,1,0,1,0,0,1,0,0,0,0,0,1,0,0,0,1
Entity940,0,0,0,1,0,0,0,1,1,1,0,1,0,0,0,1,0,0,0,0,0,1
Entity941,0,1,0,0,0,0,0,1,1,1,0,0,1,0,0,0,0,1,0,0,0,1
Entity942,1,0,0,0,0,0,1,0,1,1,0,0,1,0,0,1,0,0,0,0,0,1
Entity943,0,1,0,0,0,1,0,0,1,0,0,0,1,0,0,1,0,0,0,0,0,1
Entity944,0,0,1,0,0,0,1,0,1,1,0,0,1,0,0,1,0,0,0,0,0,1
Entity945,0,1,0,0,0,1,0,0,1,1,0,0,1,0,1,0,0,0,0,0,0,1
Entity946,0,1,0,0,0,0,1,0,1,0,0,0,1,0,0,1,0,0,0,0,0,1
Entity947,0,1,0,0,0,1,0,0,1,1,0,0,1,0,0,0,1,0,0,0,0,1
Entity948,1,0,0,0,0,1,0,0,1,0,0,0,0,1,0,0,0,1,0,0,0,1
Entity949,0,0,1,0,0,0,0,1,1,1,0,0,1,0,0,1,0,0,0,0,0,1
Entity950,0,1,0,0,0,0,1,0,1,1,0,0,0,1,0,1,0,0,0,0,0,1
Entity951,0,0,1,0,0,0,0,1,1,0,0,0,1,0,0,0,1,0,0,0,0,1
Entity952,0,0,1,0,0,0,0,1,1,1,0,0,1,0,0,0,0,1,0,0,0,1
Entity953,0,0,1,0,0,0,0,1,1,1,0,1,0,0,0,0,0,1,0,0,0,1
Entity954,1,0,0,0,0,1,0,0,1,0,0,1,0,0,0,0,0,1,0,0,0,1
Entity955,0,0,1,0,0,0,1,0,1,1,0,1,0,0,0,0,1,0,0,0,0,1
Entity956,0,0,1,0,0,1,0,0,1,0,0,0,1,0,0,0,0,1,0,0,0,1
Entity957,0,1,0,0,0,1,0,0,1,1,0,0,1,0,0,1,0,0,0,0,0,1
Entity958,0,1,0,0,0,0,1,0,1,1,0,0,1,0,0,0,1,0,0,0,0,1
Entity959,0,0,1,0,0,0,1,0,0,1,0,1,0,0,0,0,0,1,0,0,0,1
Entity960,0,1,0,0,0,0,0,1,1,1,1,0,0,0,0,0,0,1,0,0,0,1
Entity961,0,1,0,0,0,0,0,1,0,1,0,0,1,0,0,0,0,1,0,0,0,1
Entity962,0,0,0,1,0,0,0,1,1,0,1,0,0,0,0,0,0,1,0,0,0,1
Entity963,0,0,1,0,0,0,0,1,1,1,0,1,0,0,0,0,1,0,0,0,0,1
Entity964,0,0,1,0,0,0,0,1,0,1,0,1,0,0,0,0,0,1,0,0,0,1
Entity965,0,0,0,1,0,0,0,1,1,0,1,0,0,0,0,0,0,1,0,0,0,1
Entity966,0,1,0,0,0,1,0,0,1,0,0,0,1,0,0,0,1,0,0,0,0,1
Entity967,0,0,1,0,0,0,1,0,1,0,0,1,0,0,0,1,0,0,0,0,0,1
Entity968,0,0,0,1,0,0,0,1,1,0,1,0,0,0,0,0,0,1,0,0,0,1
Entity969,0,0,1,0,0,0,0,1,1,1,1,0,0,0,0,0,0,1,0,0,0,1
Entity970,0,0,0,1,0,0,0,1,1,1,0,0,1,0,0,0,0,1,0,0,0,1
Entity971,0,0,0,1,0,0,0,1,1,1,1,0,0,0,0,0,0,1,0,0,0,1
Entity972,0,0,0,1,0,0,0,1,1,1,0,1,0,0,0,0,0,1,0,0,0,1
Entity973,0,0,0,1,0,0,0,1,1,1,1,0,0,0,0,0,0,1,0,0,0,1
Entity974,1,0,0,0,0,1,0,0,1,1,0,0,1,0,0,0,0,1,0,0,0,1
Entity975,0,0,0,1,0,0,0,1,1,1,1,0,0,0,0,0,0,1,0,0,0,1
Entity976,0,0,0,1,0,0,0,1,1,1,0,0,1,0,0,0,0,1,0,0,0,1
Entity977,0,1,0,0,0,0,1,0,1,0,0,0,1,0,0,1,0,0,0,0,0,1
Entity978,0,0,0,1,0,0,0,1,0,0,0,0,1,0,0,0,1,0,1,0,0,1
Entity979,0,0,1,0,0,0,0,1,1,1,0,1,0,0,0,0,0,1,0,0,0,1
Entity980,0,0,0,1,0,0,0,1,1,1,1,0,0,0,0,0,0,1,0,0,0,1
Entity981,0,0,1,0,0,0,0,1,1,1,0,0,1,0,0,1,0,0,0,0,0,1
Entity982,0,0,0,1,0,0,0,1,0,1,0,0,1,0,0,0,0,1,0,0,0,1
Entity983,0,0,0,1,0,0,0,1,0,1,0,1,0,0,0,0,0,1,0,0,0,1
Entity984,0,0,0,1,0,0,0,1,1,1,0,1,0,0,0,0,0,1,0,0,0,1
Entity985,0,0,0,1,0,0,0,1,1,0,1,0,0,0,0,0,0,1,0,0,0,1
Entity986,0,0,0,1,0,0,0,1,0,0,1,0,0,0,0,0,0,1,0,0,0,1
Entity987,0,0,0,1,0,0,0,1,1,1,1,0,0,0,0,0,0,1,0,0,0,1
Entity988,0,0,0,1,0,0,0,1,1,1,0,0,0,1,0,0,0,1,0,0,0,1
Entity989,0,1,0,0,0,0,1,0,1,1,0,1,0,0,0,0,1,0,0,0,0,1
Entity990,0,0,1,0,0,1,0,0,1,1,0,1,0,0,0,1,0,0,0,0,0,1
Entity991,0,1,0,0,0,0,1,0,1,1,0,1,0,0,0,0,1,0,0,0,0,1
Entity992,0,0,1,0,0,0,0,1,1,1,1,0,0,0,0,0,0,1,0,0,0,1
Entity993,0,0,1,0,0,0,0,1,0,0,0,0,1,0,0,0,0,1,0,0,0,1
Entity994,0,0,1,0,0,0,0,1,1,1,0,0,1,0,0,0,0,1,0,0,0,1
Entity995,0,0,0,1,0,0,0,1,1,1,1,0,0,0,0,0,0,1,0,0,0,1
Entity996,0,1,0,0,1,0,0,0,1,0,0,0,1,0,1,0,0,0,1,0,0,1
Entity997,0,1,0,0,0,0,1,0,1,0,0,0,1,0,0,1,0,0,0,0,0,1
Entity998,0,1,0,0,0,0,1,0,1,1,0,1,0,0,0,0,0,1,0,0,0,1
Entity999,0,1,0,0,0,0,0,1,1,1,1,0,0,0,0,0,0,1,1,0,0,1
Entity1000,1,0,0,0,0,1,0,0,1,0,0,0,1,0,0,0,0,1,1,0,0,1
Entity1001,0,1,0,0,0,1,0,0,1,0,0,0,1,0,1,0,0,0,1,1,0,0
Entity1002,0,0,1,0,0,1,0,0,1,1,0,1,0,0,0,0,1,0,0,1,0,0
Entity1003,0,1,0,0,0,0,0,1,1,0,1,0,0,0,1,0,0,0,0,1,0,0
Entity1004,0,0,0,1,0,0,0,1,1,0,0,0,1,0,0,0,0,1,0,1,0,0
Entity1005,0,1,0,0,0,1,0,0,1,1,0,0,1,0,0,0,1,0,0,1,0,0
Entity1006,1,0,0,0,1,0,0,0,1,0,0,0,1,0,0,0,1,0,1,1,0,0
Entity1007,0,0,0,1,0,0,0,1,1,0,1,0,0,0,0,0,0,1,0,1,0,0
Entity1008,0,0,1,0,0,0,0,1,1,1,0,0,1,0,0,0,1,0,0,1,0,0
Entity1009,0,0,0,1,0,0,0,1,1,1,0,0,1,0,0,0,0,1,0,1,0,0
Entity1010,0,1,0,0,0,0,1,0,1,1,1,0,0,0,0,0,0,1,0,1,0,0
Entity1011,0,1,0,0,0,0,0,1,1,1,0,0,1,0,0,0,0,1,0,1,0,0
Entity1012,0,1,0,0,0,1,0,0,1,1,0,0,1,0,0,1,0,0,0,1,0,0
Entity1013,0,0,1,0,0,0,0,1,1,1,1,0,0,0,0,0,0,1,0,1,0,0
Entity1014,1,0,0,0,0,1,0,0,1,1,0,1,0,0,0,0,1,0,0,1,0,0
Entity1015,0,0,0,1,0,0,0,1,1,1,0,0,1,0,0,1,0,0,0,1,0,0
Entity1016,0,0,0,1,0,0,0,1,1,1,0,0,1,0,0,1,0,0,0,1,0,0
Entity1017,0,0,1,0,0,0,0,1,1,1,0,0,1,0,0,0,1,0,0,1,0,0
Entity1018,0,0,0,1,0,0,0,1,1,1,1,0,0,0,0,0,1,0,0,1,0,0
Entity1019,0,1,0,0,0,0,1,0,1,1,0,0,1,0,0,0,1,0,0,1,0,0
Entity1020,0,1,0,0,0,0,0,1,1,1,1,0,0,0,0,0,1,0,0,1,0,0
Entity1021,1,0,0,0,0,1,0,0,1,1,1,0,0,0,0,0,0,1,1,1,0,0
Entity1022,0,1,0,0,0,0,0,1,1,1,0,1,0,0,0,0,1,0,0,1,0,0
Entity1023,0,0,1,0,0,0,0,1,1,0,1,0,0,0,0,0,1,0,0,1,0,0
Entity1024,0,0,0,1,0,0,0,1,1,0,0,0,1,0,0,0,1,0,0,1,0,0
Entity1025,0,0,0,1,0,0,0,1,0,0,0,1,0,0,0,0,0,1,0,1,0,0
Entity1026,0,0,0,1,0,0,0,1,0,1,1,0,0,0,0,0,0,1,0,1,0,0
Entity1027,0,1,0,0,0,1,0,0,1,0,0,0,1,0,0,1,0,0,1,1,0,0
Entity1028,0,1,0,0,0,1,0,0,0,1,0,1,0,0,0,1,0,0,0,1,0,0
Entity1029,0,1,0,0,0,1,0,0,1,1,1,0,0,0,0,0,1,0,0,1,0,0
Entity1030,0,0,1,0,0,0,0,1,1,1,0,0,1,0,0,0,1,0,0,1,0,0
Entity1031,0,0,1,0,0,0,0,1,1,0,0,1,0,0,0,1,0,0,0,1,0,0
Entity1032,0,0,1,0,0,0,0,1,1,1,0,0,1,0,0,0,0,1,0,1,0,0
Entity1033,0,1,0,0,0,0,1,0,1,1,0,1,0,0,0,0,1,0,0,1,0,0
Entity1034,0,1,0,0,0,1,0,0,1,1,0,0,1,0,1,0,0,0,0,1,0,0
Entity1035,0,0,0,1,0,0,0,1,1,1,0,1,0,0,0,0,0,1,0,1,0,0
Entity1036,0,0,0,1,0,0,0,1,0,1,1,0,0,0,0,0,0,1,0,1,0,0
Entity1037,0,0,0,1,0,0,0,1,1,1,1,0,0,0,0,0,0,1,0,1,0,0
Entity1038,0,0,0,1,0,0,0,1,1,1,1,0,0,0,0,0,0,1,0,1,0,0
Entity1039,0,0,1,0,0,0,1,0,1,0,0,1,0,0,0,0,0,1,0,1,0,0
Entity1040,0,0,1,0,0,0,0,1,1,0,0,1,0,0,0,0,1,0,0,1,0,0
Entity1041,0,1,0,0,0,0,1,0,0,1,0,1,0,0,0,0,1,0,0,1,0,0
Entity1042,0,0,1,0,0,0,1,0,1,0,0,0,1,0,0,1,0,0,0,1,0,0
Entity1043,0,1,0,0,0,0,0,1,1,0,0,0,1,0,0,0,0,1,0,1,0,0
Entity1044,1,0,0,0,1,0,0,0,0,0,0,1,0,0,1,0,0,0,0,1,0,0
Entity1045,0,0,0,1,0,0,0,1,1,0,0,1,0,0,0,0,1,0,0,1,0,0
Entity1046,1,0,0,0,0,0,0,1,1,1,1,0,0,0,0,1,0,0,0,1,0,0
Entity1047,0,1,0,0,0,0,1,0,1,1,0,0,1,0,1,0,0,0,0,1,0,0
Entity1048,0,0,1,0,0,0,0,1,0,1,0,1,0,0,0,1,0,0,0,1,0,0
Entity1049,1,0,0,0,0,1,0,0,1,0,0,0,1,0,0,0,1,0,0,1,0,0
Entity1050,0,0,0,1,0,0,0,1,1,1,1,0,0,0,0,0,1,0,0,1,0,0
Entity1051,0,0,1,0,0,0,0,1,1,1,1,0,0,0,0,0,1,0,0,1,0,0
Entity1052,1,0,0,0,0,0,0,1,1,1,0,1,0,0,0,1,0,0,0,1,0,0
Entity1053,0,0,0,1,0,0,0,1,1,0,0,1,0,0,0,0,0,1,0,1,0,0
Entity1054,0,1,0,0,0,0,1,0,1,1,0,0,1,0,0,0,1,0,1,1,0,0
Entity1055,0,0,0,1,0,0,0,1,1,1,1,0,0,0,0,0,0,1,0,1,0,0
Entity1056,1,0,0,0,0,1,0,0,1,1,0,1,0,0,0,1,0,0,1,1,0,0
Entity1057,1,0,0,0,0,0,0,1,1,1,1,0,0,0,0,0,0,1,1,1,0,0
Entity1058,0,0,1,0,0,0,0,1,1,1,1,0,0,0,0,0,1,0,0,1,0,0
Entity1059,1,0,0,0,1,0,0,0,1,1,0,1,0,0,0,0,1,0,0,1,0,0
Entity1060,0,0,0,1,0,0,0,1,1,1,0,0,1,0,0,0,0,1,0,1,0,0
Entity1061,0,0,0,1,0,0,0,1,1,0,1,0,0,0,0,0,0,1,0,1,0,0
Entity1062,1,0,0,0,0,0,1,0,1,1,0,0,1,0,0,0,0,1,0,1,0,0
Entity1063,0,0,1,0,0,0,1,0,1,1,0,1,0,0,0,0,0,1,0,1,0,0
Entity1064,0,1,0,0,0,0,1,0,1,1,0,1,0,0,0,0,1,0,0,1,0,0
Entity1065,0,0,1,0,0,0,0,1,1,1,1,0,0,0,0,0,1,0,0,1,0,0
Entity1066,1,0,0,0,0,0,0,1,1,1,0,0,1,0,0,0,1,0,0,1,0,0
Entity1067,1,0,0,0,0,1,0,0,1,1,0,0,1,0,1,0,0,0,1,1,0,0
Entity1068,1,0,0,0,0,0,0,1,1,1,0,1,0,0,0,0,1,0,0,1,0,0
Entity1069,0,0,0,1,0,0,0,1,1,1,0,1,0,0,0,0,0,1,0,1,0,0
Entity1070,0,1,0,0,0,0,1,0,1,1,0,0,1,0,1,0,0,0,0,1,0,0
Entity1071,1,0,0,0,1,0,0,0,1,1,0,1,0,0,0,0,1,0,1,1,0,0
Entity1072,1,0,0,0,0,1,0,0,1,1,0,1,0,0,0,0,1,0,1,1,0,0
Entity1073,0,0,1,0,0,0,0,1,1,0,0,0,1,0,0,0,1,0,0,1,0,0
Entity1074,0,0,1,0,0,0,0,1,1,1,0,1,0,0,0,0,1,0,0,1,0,0
Entity1075,1,0,0,0,0,1,0,0,1,1,0,0,1,0,0,0,1,0,1,1,0,0
Entity1076,0,0,1,0,0,0,0,1,1,1,1,0,0,0,0,0,1,0,0,1,0,0
Entity1077,0,0,0,1,0,0,0,1,0,1,0,1,0,0,0,0,0,1,0,1,0,0
Entity1078,1,0,0,0,1,0,0,0,1,1,0,0,1,0,1,0,0,0,1,1,0,0
Entity1079,0,0,1,0,0,0,0,1,1,1,0,0,1,0,0,0,0,1,0,1,0,0
Entity1080,0,1,0,0,1,0,0,0,1,1,0,1,0,0,0,0,1,0,0,1,0,0
Entity1081,0,0,1,0,0,0,0,1,1,1,1,0,0,0,1,0,0,0,0,1,0,0
Entity1082,0,0,0,1,0,0,0,1,0,0,1,0,0,0,0,0,0,1,0,1,0,0
Entity1083,0,0,0,1,0,0,0,1,1,0,1,0,0,0,0,0,0,1,0,1,0,0
Entity1084,0,0,0,1,0,0,0,1,1,1,1,0,0,0,0,0,0,1,0,1,0,0
Entity1085,0,1,0,0,0,0,0,1,1,1,0,0,1,0,1,0,0,0,0,1,0,0
Entity1086,0,0,0,1,0,1,0,0,1,0,0,0,1,0,0,0,1,0,0,1,0,0
Entity1087,0,0,0,1,0,0,0,1,1,0,1,0,0,0,0,0,0,1,0,1,0,0
Entity1088,0,1,0,0,0,0,0,1,1,1,0,1,0,0,0,0,1,0,0,1,0,0
Entity1089,0,0,1,0,1,0,0,0,1,1,0,0,1,0,0,1,0,0,0,1,0,0
Entity1090,1,0,0,0,0,0,0,1,1,0,0,0,0,1,1,0,0,0,0,1,0,0
Entity1091,0,1,0,0,0,0,0,1,1,1,0,1,0,0,0,1,0,0,0,1,0,0
Entity1092,0,0,1,0,0,0,0,1,1,1,0,0,1,0,0,0,1,0,0,1,0,0
Entity1093,0,0,1,0,0,0,1,0,1,1,0,0,1,0,0,0,1,0,0,1,0,0
Entity1094,0,0,1,0,0,0,1,0,1,1,0,1,0,0,0,1,0,0,0,1,0,0
Entity1095,1,0,0,0,0,1,0,0,1,1,0,1,0,0,1,0,0,0,1,1,0,0
Entity1096,0,0,1,0,0,0,0,1,1,1,0,0,1,0,0,1,0,0,0,1,0,0
Entity1097,0,0,1,0,0,0,0,1,1,1,0,1,0,0,0,0,0,1,0,1,0,0
Entity1098,0,0,1,0,1,0,0,0,1,1,0,1,0,0,0,0,1,0,0,1,0,0
Entity1099,1,0,0,0,0,0,1,0,1,1,0,0,0,1,0,1,0,0,0,1,0,0
Entity1100,0,0,1,0,0,0,0,1,1,1,0,0,1,0,1,0,0,0,1,1,0,0
Entity1101,0,0,0,1,0,0,0,1,1,0,1,0,0,0,0,0,1,0,0,1,0,0
Entity1102,0,0,0,1,0,0,0,1,1,1,1,0,0,0,0,0,0,1,0,1,0,0
Entity1103,0,0,1,0,0,0,0,1,1,1,0,0,1,0,0,1,0,0,0,1,0,0
Entity1104,0,0,1,0,0,0,1,0,1,0,0,0,1,0,0,0,0,1,0,1,0,0
Entity1105,0,0,0,1,0,0,0,1,1,1,0,1,0,0,1,0,0,0,1,1,0,0
Entity1106,0,1,0,0,0,0,1,0,1,1,0,1,0,0,0,0,1,0,0,1,0,0
Entity1107,0,0,1,0,0,0,0,1,1,1,1,0,0,0,0,0,1,0,0,1,0,0
Entity1108,0,1,0,0,0,1,0,0,1,1,0,1,0,0,0,1,0,0,0,1,0,0
Entity1109,0,1,0,0,0,0,1,0,1,1,0,1,0,0,1,0,0,0,0,1,0,0
Entity1110,0,0,0,1,0,0,0,1,1,1,1,0,0,0,0,0,0,1,0,1,0,0
Entity1111,0,1,0,0,0,1,0,0,1,0,0,1,0,0,0,0,1,0,0,1,0,0
Entity1112,0,0,0,1,0,0,0,1,1,0,1,0,0,0,0,0,1,0,0,1,0,0
Entity1113,0,0,1,0,0,0,0,1,1,1,0,0,1,0,0,0,1,0,0,1,0,0
Entity1114,0,1,0,0,0,0,1,0,1,1,0,0,1,0,0,1,0,0,0,1,0,0
Entity1115,0,0,1,0,0,0,0,1,1,0,0,0,1,0,0,0,1,0,0,1,0,0
Entity1116,0,0,0,1,0,0,0,1,1,1,0,0,1,0,0,0,0,1,0,1,0,0
Entity1117,0,0,0,1,0,0,0,1,1,1,1,0,0,0,0,0,1,0,0,1,0,0
Entity1118,0,0,0,1,0,0,0,1,1,1,0,0,1,0,0,0,0,1,0,1,0,0
Entity1119,0,0,0,1,0,0,0,1,1,1,1,0,0,0,0,0,0,1,0,1,0,0
Entity1120,1,0,0,0,0,0,1,0,1,0,0,1,0,0,0,1,0,0,0,1,0,0
Entity1121,0,1,0,0,0,0,1,0,1,1,0,0,1,0,0,0,0,1,0,1,0,0
Entity1122,0,1,0,0,0,0,1,0,1,1,0,0,1,0,0,1,0,0,1,1,0,0
Entity1123,0,0,1,0,0,0,0,1,0,1,0,1,0,0,0,0,1,0,0,1,0,0
Entity1124,0,1,0,0,0,0,0,1,1,1,0,0,1,0,0,1,0,0,1,1,0,0
Entity1125,0,1,0,0,0,1,0,0,1,1,0,0,1,0,0,0,0,1,0,1,0,0
Entity1126,0,0,1,0,0,0,1,0,1,1,0,1,0,0,0,1,0,0,0,1,0,0
Entity1127,0,0,0,1,0,0,0,1,1,1,1,0,0,0,0,1,0,0,0,1,0,0
Entity1128,1,0,0,0,0,1,0,0,1,1,0,0,1,0,1,0,0,0,0,1,0,0
Entity1129,0,0,0,1,0,0,0,1,1,0,1,0,0,0,0,0,0,1,0,1,0,0
Entity1130,0,0,0,1,0,0,0,1,1,1,1,0,0,0,0,0,1,0,0,1,0,0
Entity1131,0,1,0,0,0,0,0,1,1,0,0,0,1,0,0,0,0,1,0,1,0,0
Entity1132,1,0,0,0,0,0,1,0,1,0,1,0,0,0,0,0,1,0,0,1,0,0
Entity1133,0,0,0,1,0,0,0,1,1,1,1,0,0,0,0,0,1,0,0,1,0,0
Entity1134,0,0,1,0,0,0,0,1,1,0,0,0,1,0,0,0,0,1,0,1,0,0
Entity1135,0,0,1,0,0,0,0,1,1,1,0,0,1,0,0,0,1,0,0,1,0,0
Entity1136,0,1,0,0,0,0,1,0,1,0,0,0,0,1,0,0,0,1,0,1,0,0
Entity1137,0,0,1,0,0,0,0,1,0,1,0,1,0,0,0,1,0,0,0,1,0,0
Entity1138,0,0,1,0,0,0,0,1,1,0,0,1,0,0,0,0,0,1,0,1,0,0
Entity1139,0,0,1,0,0,0,0,1,1,1,1,0,0,0,0,0,0,1,0,1,0,0
Entity1140,0,1,0,0,0,0,1,0,1,1,0,0,1,0,1,0,0,0,0,1,0,0
Entity1141,0,1,0,0,0,0,0,1,1,1,0,0,1,0,0,0,0,1,0,1,0,0
Entity1142,0,0,0,1,0,0,0,1,0,1,1,0,0,0,0,0,0,1,0,1,0,0
Entity1143,1,0,0,0,0,0,1,0,1,1,0,1,0,0,0,0,0,1,0,1,0,0
Entity1144,0,0,0,1,0,0,0,1,1,1,1,0,0,0,0,0,0,1,0,1,0,0
Entity1145,0,0,0,1,0,0,0,1,0,0,1,0,0,0,0,0,1,0,0,1,0,0
Entity1146,0,0,0,1,0,0,0,1,1,0,1,0,0,0,0,0,0,1,0,1,0,0
Entity1147,0,1,0,0,0,0,1,0,1,0,0,0,1,0,0,0,0,1,1,1,0,0
Entity1148,0,0,0,1,0,0,0,1,1,1,1,0,0,0,0,0,0,1,0,1,0,0
Entity1149,0,0,1,0,0,0,1,0,1,0,0,1,0,0,0,0,0,1,0,1,0,0
Entity1150,0,0,0,1,0,0,1,0,1,0,0,0,1,0,0,1,0,0,0,1,0,0
Entity1151,0,0,1,0,0,0,1,0,1,0,0,0,1,0,0,0,1,0,0,1,0,0
Entity1152,0,0,1,0,0,0,0,1,1,1,0,0,1,0,0,0,1,0,0,1,0,0
Entity1153,0,0,0,1,0,0,0,1,1,1,1,0,0,0,0,0,1,0,0,1,0,0
Entity1154,0,1,0,0,0,0,1,0,1,1,0,0,1,0,0,0,0,1,0,1,0,0
Entity1155,0,0,1,0,0,1,0,0,1,0,0,0,1,0,0,0,1,0,0,1,0,0
Entity1156,0,0,0,1,0,0,0,1,0,0,0,1,0,0,0,0,0,1,0,1,0,0
Entity1157,0,0,1,0,0,0,0,1,0,0,0,1,0,0,0,0,0,1,0,1,0,0
Entity1158,0,0,1,0,0,0,1,0,0,0,0,1,0,0,0,0,1,0,1,1,0,0
Entity1159,0,0,1,0,0,1,0,0,1,1,0,0,0,1,0,0,0,1,0,1,0,0
Entity1160,0,0,1,0,0,0,0,1,0,1,0,0,1,0,0,0,0,1,0,1,0,0
Entity1161,0,0,1,0,0,0,0,1,1,1,0,0,1,0,0,0,1,0,0,1,0,0
Entity1162,0,0,0,1,0,0,0,1,1,1,1,0,0,0,0,0,0,1,0,1,0,0
Entity1163,0,1,0,0,0,1,0,0,0,0,0,1,0,0,0,0,0,1,0,1,0,0
Entity1164,0,0,1,0,0,0,0,1,0,1,0,1,0,0,0,0,0,1,0,1,0,0
Entity1165,0,0,1,0,0,0,0,1,0,1,0,1,0,0,0,0,0,1,0,1,0,0
Entity1166,0,0,0,1,0,0,0,1,0,1,1,0,0,0,0,0,0,1,0,1,0,0
Entity1167,0,0,1,0,0,0,1,0,0,0,0,0,1,0,0,1,0,0,1,1,0,0
Entity1168,0,0,1,0,0,0,0,1,1,1,0,0,1,0,0,0,1,0,0,1,0,0
Entity1169,1,0,0,0,0,0,1,0,1,0,0,0,1,0,0,0,0,1,0,1,0,0
Entity1170,1,0,0,0,1,0,0,0,1,1,0,0,1,0,0,1,0,0,0,1,0,0
Entity1171,1,0,0,0,0,1,0,0,1,1,0,0,1,0,1,0,0,0,1,1,0,0
Entity1172,0,1,0,0,0,1,0,0,1,1,0,0,1,0,1,0,0,0,1,1,0,0
Entity1173,0,0,1,0,0,0,0,1,0,1,0,0,1,0,1,0,0,0,1,1,0,0
Entity1174,0,1,0,0,0,0,0,1,1,1,0,0,1,0,0,0,0,1,0,1,0,0
Entity1175,0,0,1,0,0,1,0,0,1,1,0,0,1,0,1,0,0,0,0,1,0,0
Entity1176,0,1,0,0,0,1,0,0,1,1,0,0,1,0,1,0,0,0,1,1,0,0
Entity1177,0,1,0,0,0,1,0,0,1,1,0,1,0,0,0,0,0,1,0,1,0,0
Entity1178,1,0,0,0,0,0,1,0,1,0,0,1,0,0,0,0,0,1,0,1,0,0
Entity1179,0,0,1,0,0,0,1,0,1,1,0,1,0,0,0,0,0,1,0,1,0,0
Entity1180,0,0,1,0,0,1,0,0,1,1,0,1,0,0,0,1,0,0,0,1,0,0
Entity1181,0,0,1,0,0,0,0,1,1,0,0,0,1,0,0,0,0,1,0,1,0,0
Entity1182,0,1,0,0,0,1,0,0,1,1,0,1,0,0,0,1,0,0,1,1,0,0
Entity1183,0,0,1,0,0,0,0,1,0,1,0,1,0,0,0,0,1,0,0,1,0,0
Entity1184,0,0,0,1,0,0,0,1,0,0,0,0,1,0,0,0,0,1,0,1,0,0
Entity1185,0,0,1,0,0,0,0,1,1,1,0,0,1,0,0,0,0,1,0,1,0,0
Entity1186,0,0,1,0,0,1,0,0,1,1,0,0,1,0,0,0,0,1,0,1,0,0
Entity1187,0,0,0,1,0,0,0,1,0,0,1,0,0,0,0,0,0,1,0,1,0,0
Entity1188,0,1,0,0,0,0,1,0,1,1,0,0,1,0,0,0,0,1,0,1,0,0
Entity1189,0,0,0,1,0,0,0,1,1,1,1,0,0,0,0,0,1,0,0,1,0,0
Entity1190,0,0,1,0,0,0,0,1,1,1,0,0,1,0,0,0,0,1,0,1,0,0
Entity1191,0,0,1,0,0,0,0,1,1,1,0,1,0,0,0,1,0,0,0,1,0,0
Entity1192,0,0,0,1,0,0,0,1,0,1,0,1,0,0,0,0,0,1,0,1,0,0
Entity1193,0,1,0,0,1,0,0,0,1,1,0,1,0,0,0,1,0,0,0,1,0,0
Entity1194,0,0,0,1,0,0,0,1,1,1,1,0,0,0,0,0,0,1,0,1,0,0
Entity1195,0,0,0,1,0,0,0,1,1,1,1,0,0,0,0,0,0,1,0,1,0,0
Entity1196,0,0,0,1,0,0,0,1,1,0,0,0,1,0,0,0,0,1,0,1,0,0
Entity1197,0,1,0,0,0,1,0,0,1,1,0,0,1,0,0,0,0,1,0,1,0,0
Entity1198,0,0,1,0,0,0,1,0,1,1,0,1,0,0,0,0,1,0,0,1,0,0
Entity1199,0,1,0,0,0,0,1,0,1,1,1,0,0,0,1,0,0,0,0,1,0,0
Entity1200,0,0,1,0,0,0,0,1,1,1,1,0,0,0,0,0,0,1,0,1,0,0
Entity1201,1,0,0,0,0,0,1,0,1,1,0,0,1,0,1,0,0,0,0,1,0,0
Entity1202,0,0,0,1,0,0,0,1,1,1,1,0,0,0,0,1,0,0,0,1,0,0
Entity1203,1,0,0,0,1,0,0,0,1,1,0,1,0,0,0,1,0,0,0,1,0,0
Entity1204,1,0,0,0,1,0,0,0,1,1,1,0,0,0,1,0,0,0,1,1,0,0
Entity1205,0,1,0,0,0,1,0,0,1,1,0,0,1,0,0,1,0,0,0,1,0,0
Entity1206,1,0,0,0,0,0,1,0,1,1,0,1,0,0,0,1,0,0,1,1,0,0
Entity1207,1,0,0,0,0,1,0,0,1,1,0,1,0,0,0,0,0,1,0,1,0,0
Entity1208,0,0,0,1,0,0,0,1,1,1,1,0,0,0,0,0,0,1,0,1,0,0
Entity1209,1,0,0,0,1,0,0,0,1,1,0,0,1,0,0,1,0,0,0,1,0,0
Entity1210,0,0,0,1,0,0,0,1,1,1,1,0,0,0,0,0,0,1,0,1,0,0
Entity1211,0,0,1,0,0,0,1,0,1,1,0,0,1,0,0,0,0,1,0,1,0,0
Entity1212,1,0,0,0,0,1,0,0,1,0,0,1,0,0,0,1,0,0,1,1,0,0
Entity1213,0,1,0,0,0,0,0,1,1,1,0,0,1,0,0,1,0,0,0,1,0,0
Entity1214,0,0,0,1,0,0,0,1,0,0,0,1,0,0,0,0,0,1,0,1,0,0
Entity1215,0,0,0,1,0,0,0,1,1,1,0,0,1,0,0,0,0,1,0,0,1,0
Entity1216,0,0,0,1,0,0,0,1,1,1,1,0,0,0,0,0,0,1,0,0,1,0
Entity1217,0,0,0,1,0,0,0,1,1,1,0,0,1,0,0,0,1,0,0,0,1,0
Entity1218,0,0,0,1,0,0,0,1,1,1,1,0,0,0,0,0,1,0,0,0,1,0
Entity1219,0,0,1,0,0,0,0,1,1,1,0,0,1,0,0,0,0,1,0,0,1,0
Entity1220,0,0,0,1,0,0,0,1,1,1,1,0,0,0,0,0,1,0,0,0,1,0
Entity1221,0,0,1,0,0,0,0,1,1,1,1,0,0,0,0,0,0,1,0,0,1,0
Entity1222,0,0,0,1,0,0,0,1,1,1,1,0,0,0,0,0,1,0,0,0,1,0
Entity1223,0,0,0,1,0,0,0,1,1,0,1,0,0,0,0,0,0,1,0,0,1,0
Entity1224,0,1,0,0,0,1,0,0,1,1,0,0,1,0,0,0,1,0,0,0,1,0
Entity1225,0,0,0,1,0,0,0,1,1,1,1,0,0,0,0,0,0,1,0,0,1,0
Entity1226,0,1,0,0,0,1,0,0,1,1,0,0,1,0,0,0,0,1,0,0,1,0
Entity1227,0,0,0,1,0,0,0,1,1,0,1,0,0,0,0,0,0,1,0,0,1,0
Entity1228,0,1,0,0,0,0,0,1,1,1,1,0,0,0,0,0,0,1,0,0,1,0
Entity1229,0,0,0,1,0,0,0,1,1,1,1,0,0,0,0,0,0,1,0,0,1,0
Entity1230,0,0,1,0,0,0,1,0,1,1,0,0,1,0,0,0,0,1,0,0,1,0
Entity1231,0,0,0,1,0,0,0,1,1,1,1,0,0,0,0,1,0,0,0,0,1,0
Entity1232,0,0,0,1,0,0,0,1,1,1,1,0,0,0,0,0,1,0,0,0,1,0
Entity1233,0,0,0,1,0,0,0,1,0,1,1,0,0,0,0,0,0,1,0,0,1,0
Entity1234,0,0,0,1,0,0,0,1,1,1,0,1,0,0,1,0,0,0,0,0,1,0
Entity1235,0,0,0,1,0,0,0,1,1,1,0,1,0,0,0,0,0,1,0,0,1,0
Entity1236,0,0,1,0,0,0,0,1,1,1,0,1,0,0,0,0,1,0,0,0,1,0
Entity1237,1,0,0,0,0,0,0,1,1,1,1,0,0,0,0,0,1,0,0,0,1,0
Entity1238,0,0,0,1,0,0,0,1,1,1,1,0,0,0,0,0,0,1,0,0,1,0
Entity1239,0,0,1,0,0,0,0,1,1,1,0,0,1,0,0,0,1,0,0,0,1,0
Entity1240,0,0,0,1,0,0,0,1,1,1,1,0,0,0,0,0,0,1,0,0,1,0
Entity1241,0,0,1,0,0,0,1,0,1,0,0,0,1,0,0,0,1,0,0,0,1,0
Entity1242,0,0,1,0,1,0,0,0,1,0,0,0,1,0,0,0,1,0,0,0,1,0
Entity1243,0,1,0,0,0,0,1,0,1,1,1,0,0,0,0,1,0,0,0,0,1,0
Entity1244,0,0,0,1,0,0,0,1,1,0,0,1,0,0,0,1,0,0,0,0,1,0
Entity1245,0,0,1,0,0,0,0,1,0,1,1,0,0,0,0,0,0,1,0,0,1,0
Entity1246,0,0,1,0,0,0,0,1,0,1,0,1,0,0,0,0,1,0,0,0,1,0
Entity1247,0,0,0,1,0,0,0,1,1,1,1,0,0,0,0,0,0,1,0,0,1,0
Entity1248,1,0,0,0,0,0,1,0,1,1,1,0,0,0,0,0,0,1,0,0,1,0
Entity1249,0,0,1,0,0,0,1,0,1,1,1,0,0,0,1,0,0,0,0,0,1,0
Entity1250,0,0,0,1,0,0,0,1,1,1,0,1,0,0,0,0,0,1,0,0,1,0
Entity1251,0,0,0,1,0,0,0,1,1,0,0,0,1,0,0,0,1,0,0,0,1,0
Entity1252,0,0,1,0,0,0,0,1,1,1,0,0,1,0,0,0,1,0,0,0,1,0
Entity1253,0,0,1,0,0,0,0,1,1,1,1,0,0,0,0,0,0,1,0,0,1,0
Entity1254,0,0,0,1,0,0,0,1,1,0,0,1,0,0,0,0,1,0,0,0,1,0
Entity1255,0,0,0,1,0,0,0,1,1,1,1,0,0,0,0,0,0,1,0,0,1,0
Entity1256,0,0,1,0,0,0,0,1,1,1,1,0,0,0,0,0,0,1,0,0,1,0
Entity1257,0,0,0,1,0,0,0,1,0,1,0,1,0,0,0,0,0,1,0,0,1,0
Entity1258,0,0,0,1,0,0,0,1,1,0,0,1,0,0,0,0,1,0,0,0,1,0
Entity1259,0,0,1,0,0,0,0,1,1,1,1,0,0,0,0,0,1,0,0,0,1,0
Entity1260,0,0,0,1,0,0,0,1,1,0,1,0,0,0,0,0,0,1,0,0,1,0
Entity1261,0,0,0,1,0,0,0,1,0,0,1,0,0,0,0,0,1,0,0,0,1,0
Entity1262,0,0,0,1,0,0,0,1,0,1,1,0,0,0,0,0,0,1,0,0,1,0
Entity1263,0,0,0,1,0,0,0,1,1,1,0,1,0,0,0,0,1,0,0,0,1,0
Entity1264,0,0,0,1,0,0,0,1,1,1,1,0,0,0,0,0,0,1,0,0,1,0
Entity1265,0,0,0,1,0,0,0,1,1,1,1,0,0,0,0,0,0,1,0,0,1,0
Entity1266,0,1,0,0,0,0,0,1,0,1,0,0,1,0,0,1,0,0,0,0,1,0
Entity1267,0,0,0,1,0,0,0,1,1,1,0,0,1,0,0,0,0,1,0,0,1,0
Entity1268,0,0,0,1,0,0,0,1,1,1,0,1,0,0,0,0,0,1,0,0,1,0
Entity1269,0,0,0,1,0,0,0,1,1,1,0,0,1,0,0,0,1,0,0,0,1,0
Entity1270,0,1,0,0,0,1,0,0,1,1,0,1,0,0,0,1,0,0,0,0,1,0
Entity1271,0,0,0,1,0,0,0,1,0,0,0,1,0,0,0,0,0,1,0,0,1,0
Entity1272,1,0,0,0,0,1,0,0,1,0,0,0,1,0,1,0,0,0,0,0,1,0
Entity1273,0,0,0,1,0,0,0,1,1,1,0,0,1,0,0,1,0,0,0,0,1,0
Entity1274,0,0,1,0,0,0,1,0,1,1,1,0,0,0,0,0,1,0,0,0,1,0
Entity1275,0,0,1,0,0,0,1,0,1,1,0,0,1,0,0,0,1,0,0,0,1,0
Entity1276,0,1,0,0,0,0,1,0,1,1,0,0,1,0,1,0,0,0,1,0,1,0
Entity1277,0,0,0,1,0,0,0,1,1,1,0,0,1,0,0,0,1,0,0,0,1,0
Entity1278,0,0,1,0,0,0,0,1,1,1,1,0,0,0,0,0,0,1,0,0,1,0
Entity1279,0,0,0,1,0,0,0,1,1,0,0,0,1,0,0,0,0,1,0,0,1,0
Entity1280,0,0,0,1,0,0,0,1,0,1,0,1,0,0,0,0,0,1,0,0,1,0
Entity1281,0,0,1,0,0,0,0,1,1,1,1,0,0,0,0,0,1,0,0,0,1,0
Entity1282,0,0,0,1,0,0,0,1,1,1,1,0,0,0,0,0,1,0,0,0,1,0
Entity1283,0,0,1,0,0,0,1,0,1,0,0,0,1,0,0,1,0,0,0,0,1,0
Entity1284,0,0,1,0,0,0,0,1,1,1,0,0,1,0,0,1,0,0,0,0,1,0
Entity1285,0,0,0,1,0,0,0,1,1,1,0,1,0,0,0,0,0,1,0,0,1,0
Entity1286,0,0,0,1,0,0,0,1,1,0,1,0,0,0,0,0,0,1,0,0,1,0
Entity1287,0,0,1,0,0,0,0,1,1,1,1,0,0,0,0,0,0,1,0,0,1,0
Entity1288,0,0,0,1,0,0,0,1,0,1,0,1,0,0,0,0,1,0,0,0,1,0
Entity1289,0,0,1,0,0,0,0,1,0,1,0,1,0,0,0,0,1,0,0,0,1,0
Entity1290,0,1,0,0,1,0,0,0,1,0,0,1,0,0,0,1,0,0,0,0,1,0
Entity1291,0,1,0,0,0,1,0,0,1,1,0,0,1,0,0,0,0,1,0,0,1,0
Entity1292,0,0,0,1,0,0,0,1,1,1,1,0,0,0,0,0,0,1,0,0,1,0
Entity1293,0,0,1,0,0,0,0,1,0,1,0,1,0,0,0,0,0,1,0,0,1,0
Entity1294,0,0,1,0,0,0,0,1,0,1,0,0,1,0,0,0,1,0,0,0,1,0
Entity1295,0,0,0,1,0,0,0,1,1,0,0,0,1,0,0,0,0,1,0,0,1,0
Entity1296,0,1,0,0,0,1,0,0,1,1,0,0,0,1,0,0,1,0,1,0,1,0
Entity1297,0,0,0,1,0,0,0,1,0,1,0,1,0,0,0,0,0,1,0,0,1,0
Entity1298,0,0,0,1,0,0,0,1,1,1,1,0,0,0,0,0,0,1,0,0,1,0
Entity1299,0,0,1,0,0,0,0,1,1,1,0,0,1,0,0,0,0,1,0,0,1,0
Entity1300,0,0,0,1,0,0,0,1,1,1,1,0,0,0,0,0,1,0,0,0,1,0
Entity1301,0,0,0,1,0,0,0,1,0,1,1,0,0,0,0,0,0,1,0,0,1,0
Entity1302,0,0,1,0,1,0,0,0,1,0,0,0,1,0,0,0,0,1,0,0,1,0
Entity1303,0,0,0,1,0,0,0,1,1,1,0,1,0,0,0,0,0,1,0,0,1,0
Entity1304,0,0,0,1,0,0,0,1,1,0,1,0,0,0,0,0,0,1,0,0,1,0
Entity1305,0,0,0,1,0,0,0,1,1,0,0,0,1,0,0,0,1,0,0,0,1,0
Entity1306,0,0,1,0,0,0,1,0,1,1,1,0,0,0,0,0,1,0,0,0,1,0
Entity1307,0,0,0,1,0,0,0,1,1,0,0,0,1,0,0,0,0,1,0,0,1,0
Entity1308,0,0,0,1,0,0,0,1,0,0,0,1,0,0,0,0,0,1,0,0,1,0
Entity1309,0,0,1,0,0,0,1,0,0,1,1,0,0,0,0,0,1,0,0,0,1,0
Entity1310,0,0,0,1,0,0,0,1,0,1,0,1,0,0,0,0,0,1,0,0,1,0
Entity1311,0,0,0,1,0,0,0,1,0,0,0,1,0,0,0,0,0,1,0,0,1,0
Entity1312,0,0,1,0,0,0,1,0,0,1,0,0,1,0,0,0,0,1,0,0,1,0
Entity1313,0,1,0,0,0,0,0,1,0,1,0,1,0,0,0,0,1,0,0,0,1,0
Entity1314,0,0,0,1,0,0,0,1,1,1,1,0,0,0,0,0,0,1,0,0,1,0
Entity1315,0,0,0,1,0,0,0,1,0,1,1,0,0,0,0,0,0,1,0,0,1,0
Entity1316,0,0,0,1,0,0,0,1,0,0,0,0,1,0,0,1,0,0,0,0,1,0
Entity1317,0,1,0,0,0,0,1,0,0,1,0,1,0,0,0,0,0,1,0,0,1,0
Entity1318,0,0,0,1,0,0,0,1,0,1,1,0,0,0,0,0,0,1,0,0,1,0
Entity1319,0,0,0,1,0,0,0,1,1,1,1,0,0,0,0,0,0,1,0,0,1,0
Entity1320,1,0,0,0,0,1,0,0,1,1,0,0,1,0,0,0,0,1,0,0,1,0
Entity1321,0,0,1,0,0,1,0,0,1,1,0,0,1,0,0,0,1,0,0,0,0,1
Entity1322,0,0,1,0,0,0,1,0,1,1,1,0,0,0,0,0,0,1,0,0,0,1
Entity1323,0,0,0,1,0,0,0,1,1,0,0,0,1,0,0,0,1,0,0,0,0,1
Entity1324,0,0,1,0,0,0,1,0,0,1,0,0,1,0,0,1,0,0,0,0,0,1
Entity1325,0,0,0,1,0,0,1,0,1,1,0,0,1,0,0,0,1,0,0,0,0,1
Entity1326,0,0,0,1,0,0,0,1,1,0,1,0,0,0,0,0,0,1,0,0,0,1
Entity1327,0,1,0,0,0,1,0,0,1,0,0,1,0,0,0,1,0,0,1,0,0,1
Entity1328,0,1,0,0,0,0,1,0,1,1,0,0,1,0,0,0,1,0,0,0,0,1
Entity1329,0,0,1,0,0,0,0,1,1,1,0,0,1,0,0,0,1,0,0,0,0,1
Entity1330,0,1,0,0,0,0,0,1,1,1,0,0,1,0,0,0,0,1,0,0,0,1
Entity1331,0,0,0,1,0,0,0,1,0,1,1,0,0,0,0,0,0,1,0,0,0,1
Entity1332,0,1,0,0,0,1,0,0,1,1,0,0,1,0,0,0,1,0,0,0,0,1
Entity1333,1,0,0,0,0,1,0,0,1,1,0,0,1,0,0,1,0,0,0,0,0,1
Entity1334,0,1,0,0,0,0,0,1,1,1,1,0,0,0,0,0,1,0,0,0,0,1
Entity1335,0,0,1,0,0,0,0,1,1,0,1,0,0,0,0,0,0,1,0,0,0,1
Entity1336,0,0,1,0,0,0,0,1,1,0,0,0,1,0,0,0,0,1,0,0,0,1
Entity1337,0,1,0,0,0,0,1,0,1,1,0,0,1,0,0,0,1,0,0,0,0,1
Entity1338,0,0,1,0,0,0,0,1,1,0,0,0,1,0,0,0,0,1,0,0,0,1
Entity1339,0,0,0,1,0,0,0,1,1,0,1,0,0,0,0,0,0,1,0,0,0,1
Entity1340,0,0,0,1,0,0,0,1,1,1,0,0,1,0,0,0,1,0,0,0,0,1
Entity1341,0,1,0,0,0,0,0,1,1,1,0,0,1,0,0,0,1,0,0,0,0,1
Entity1342,0,0,0,1,0,0,0,1,1,1,1,0,0,0,0,0,1,0,0,0,0,1
Entity1343,0,1,0,0,0,0,1,0,1,1,0,0,1,0,0,0,1,0,0,0,0,1
Entity1344,0,0,1,0,0,0,1,0,1,1,0,0,1,0,0,0,1,0,0,0,0,1
Entity1345,0,0,1,0,0,0,1,0,1,1,1,0,0,0,0,1,0,0,0,0,0,1
Entity1346,0,0,0,1,0,0,0,1,0,1,0,1,0,0,0,0,1,0,0,0,0,1
Entity1347,0,1,0,0,0,0,1,0,1,1,0,1,0,0,0,0,1,0,0,0,0,1
Entity1348,0,0,0,1,0,0,0,1,1,1,0,0,1,0,0,0,1,0,0,0,0,1
Entity1349,0,0,0,1,0,0,0,1,1,1,0,1,0,0,0,0,1,0,0,0,0,1
Entity1350,1,0,0,0,0,1,0,0,1,1,0,0,1,0,0,1,0,0,0,0,0,1
Entity1351,0,1,0,0,0,0,1,0,1,1,0,0,1,0,1,0,0,0,0,0,0,1
Entity1352,0,0,1,0,0,1,0,0,1,1,0,0,1,0,1,0,0,0,1,0,0,1
Entity1353,0,1,0,0,0,0,0,1,1,1,0,1,0,0,0,0,0,1,0,0,0,1
Entity1354,0,0,0,1,0,0,0,1,1,0,0,1,0,0,0,0,0,1,0,0,0,1
Entity1355,0,0,0,1,0,0,0,1,1,1,1,0,0,0,0,0,0,1,0,0,0,1
Entity1356,0,0,0,1,0,0,0,1,1,1,1,0,0,0,0,0,0,1,0,0,0,1
Entity1357,0,0,1,0,0,0,0,1,0,1,0,0,1,0,0,0,1,0,0,0,0,1
Entity1358,0,1,0,0,0,0,1,0,1,1,0,0,1,0,0,0,1,0,0,0,0,1
Entity1359,0,0,0,1,0,0,0,1,1,1,0,0,1,0,0,0,1,0,0,0,0,1
Entity1360,0,1,0,0,0,0,0,1,1,1,0,0,1,0,0,1,0,0,0,0,0,1
Entity1361,0,0,1,0,0,0,0,1,1,1,0,0,1,0,1,0,0,0,0,0,0,1
Entity1362,0,0,1,0,0,0,1,0,1,1,0,0,1,0,0,1,0,0,0,0,0,1
Entity1363,1,0,0,0,0,1,0,0,1,1,0,0,1,0,0,0,1,0,0,0,0,1
Entity1364,0,0,0,1,0,0,0,1,1,1,0,1,0,0,0,0,0,1,0,0,0,1
Entity1365,0,0,1,0,0,0,1,0,1,0,0,0,1,0,0,1,0,0,0,0,0,1
Entity1366,0,0,0,1,0,0,0,1,1,1,0,1,0,0,0,0,1,0,0,0,0,1
Entity1367,0,0,0,1,0,0,0,1,1,1,1,0,0,0,0,1,0,0,0,0,0,1
Entity1368,0,0,0,1,0,0,0,1,1,0,1,0,0,0,0,0,0,1,0,0,0,1
Entity1369,0,1,0,0,0,0,1,0,1,1,0,1,0,0,0,0,0,1,0,0,0,1
Entity1370,0,0,1,0,0,0,1,0,1,1,0,0,1,0,0,1,0,0,0,0,0,1
Entity1371,0,1,0,0,0,1,0,0,1,0,0,1,0,0,0,0,1,0,0,0,0,1
Entity1372,0,0,1,0,0,0,0,1,1,1,0,1,0,0,0,0,0,1,0,0,0,1
Entity1373,0,0,0,1,0,0,0,1,1,1,0,0,1,0,0,0,1,0,0,0,0,1
Entity1374,0,0,0,1,0,0,0,1,1,0,1,0,0,0,0,0,0,1,0,0,0,1
Entity1375,0,0,1,0,0,0,1,0,1,0,0,1,0,0,0,0,1,0,0,0,0,1
Entity1376,0,0,1,0,0,0,1,0,1,0,0,1,0,0,0,1,0,0,0,0,0,1
Entity1377,0,0,1,0,0,0,0,1,1,1,0,0,1,0,0,0,1,0,0,0,0,1
Entity1378,0,0,1,0,0,0,1,0,1,1,0,1,0,0,1,0,0,0,0,0,0,1
Entity1379,0,0,0,1,0,0,0,1,1,0,0,0,1,0,0,1,0,0,0,0,0,1
Entity1380,0,0,0,1,0,0,0,1,0,1,1,0,0,0,0,0,0,1,0,0,0,1
Entity1381,1,0,0,0,0,1,0,0,1,1,0,0,1,0,0,0,1,0,0,0,0,1
Entity1382,1,0,0,0,0,1,0,0,1,1,0,0,1,0,1,0,0,0,1,0,0,1
Entity1383,0,1,0,0,0,1,0,0,1,0,0,1,0,0,0,1,0,0,1,0,0,1
Entity1384,0,0,1,0,0,0,0,1,1,0,0,1,0,0,0,0,0,1,0,0,0,1
Entity1385,0,0,0,1,0,0,0,1,1,1,1,0,0,0,0,0,0,1,0,0,0,1
Entity1386,0,0,0,1,0,0,0,1,1,1,0,1,0,0,0,0,0,1,0,0,0,1
Entity1387,0,0,0,1,0,0,0,1,1,1,0,0,1,0,0,0,1,0,0,0,0,1
Entity1388,0,0,1,0,0,0,0,1,1,0,0,1,0,0,0,0,0,1,0,0,0,1
Entity1389,0,0,0,1,0,0,0,1,0,1,1,0,0,0,0,0,0,1,0,0,0,1
Entity1390,0,0,0,1,0,0,0,1,1,0,1,0,0,0,0,0,0,1,0,0,0,1
Entity1391,1,0,0,0,0,1,0,0,1,1,0,0,1,0,0,0,1,0,0,0,0,1
Entity1392,0,0,0,1,0,0,0,1,0,0,0,1,0,0,0,0,0,1,0,0,0,1
Entity1393,0,1,0,0,0,1,0,0,1,1,0,0,1,0,0,1,0,0,0,0,0,1
Entity1394,0,0,1,0,0,0,1,0,1,1,0,1,0,0,0,1,0,0,1,0,0,1
Entity1395,0,0,1,0,0,0,1,0,1,1,0,1,0,0,0,1,0,0,0,0,0,1
Entity1396,0,0,1,0,0,1,0,0,1,1,0,0,1,0,0,0,1,0,0,0,0,1
Entity1397,0,1,0,0,0,0,1,0,1,0,0,0,1,0,0,1,0,0,0,0,0,1
Entity1398,0,0,1,0,0,0,1,0,1,1,0,0,1,0,1,0,0,0,0,0,0,1
Entity1399,0,1,0,0,0,0,0,1,1,1,0,0,1,0,0,0,1,0,0,0,0,1
Entity1400,0,0,1,0,0,0,1,0,1,1,0,0,1,0,1,0,0,0,0,0,0,1
Entity1401,0,0,1,0,0,0,0,1,1,1,0,0,1,0,0,0,0,1,0,0,0,1
Entity1402,0,0,1,0,0,0,0,1,1,1,0,0,1,0,0,0,1,0,0,0,0,1
Entity1403,0,0,1,0,0,0,0,1,1,1,0,0,1,0,0,0,1,0,0,0,0,1
Entity1404,0,0,0,1,0,0,0,1,1,1,0,0,1,0,0,1,0,0,0,0,0,1
Entity1405,0,1,0,0,0,0,0,1,1,1,1,0,0,0,0,0,0,1,0,0,0,1
Entity1406,1,0,0,0,0,0,1,0,1,0,0,0,1,0,0,0,1,0,0,0,0,1
Entity1407,1,0,0,0,1,0,0,0,1,1,0,0,1,0,0,0,1,0,0,0,0,1
Entity1408,0,1,0,0,0,0,1,0,1,1,0,1,0,0,0,0,0,1,0,0,0,1
Entity1409,0,0,0,1,0,0,0,1,1,1,0,1,0,0,0,0,0,1,0,0,0,1
Entity1410,0,0,0,1,0,0,0,1,1,1,0,0,1,0,0,0,0,1,0,0,0,1
Entity1411,0,0,0,1,0,0,0,1,1,1,0,0,1,0,0,0,1,0,0,0,0,1
Entity1412,0,0,0,1,0,0,0,1,1,1,0,1,0,0,0,0,1,0,0,0,0,1
Entity1413,0,0,1,0,0,0,0,1,1,1,0,0,1,0,0,0,0,1,0,0,0,1
Entity1414,0,0,1,0,0,0,1,0,1,1,0,0,1,0,0,0,1,0,0,0,0,1
Entity1415,0,0,0,1,0,0,1,0,1,0,0,1,0,0,0,0,1,0,0,0,0,1
Entity1416,0,0,1,0,0,0,0,1,1,1,0,0,1,0,0,0,0,1,0,0,0,1
Entity1417,0,0,0,1,0,0,1,0,1,1,0,0,1,0,0,1,0,0,0,0,0,1
Entity1418,0,1,0,0,0,1,0,0,1,1,0,1,0,0,0,0,0,1,0,0,0,1
Entity1419,0,0,0,1,0,0,0,1,1,1,0,0,1,0,0,1,0,0,0,0,0,1
Entity1420,1,0,0,0,0,0,0,1,1,0,0,1,0,0,0,0,0,1,0,0,0,1
Entity1421,0,0,0,1,0,0,0,1,1,1,0,0,1,0,0,0,0,1,0,0,0,1
Entity1422,0,1,0,0,0,0,1,0,0,1,0,0,1,0,0,1,0,0,1,0,0,1
Entity1423,0,1,0,0,0,0,1,0,1,1,0,0,1,0,0,0,0,1,0,0,0,1
Entity1424,0,0,0,1,0,0,0,1,0,1,1,0,0,0,0,0,0,1,0,0,0,1
Entity1425,0,1,0,0,0,0,0,1,1,1,0,0,1,0,0,1,0,0,0,0,0,1
Entity1426,0,1,0,0,0,0,1,0,1,1,0,1,0,0,0,0,1,0,0,0,0,1
Entity1427,0,0,1,0,0,0,0,1,1,1,0,0,1,0,1,0,0,0,0,0,0,1
Entity1428,0,0,0,1,0,0,0,1,1,0,0,0,1,0,0,0,0,1,0,0,0,1
Entity1429,0,0,0,1,0,0,1,0,1,0,0,0,1,0,0,0,0,1,0,0,0,1
Entity1430,0,0,0,1,0,0,1,0,1,1,0,0,1,0,0,0,1,0,0,0,0,1
Entity1431,0,1,0,0,0,0,0,1,1,1,0,0,1,0,0,0,0,1,0,0,0,1
Entity1432,0,0,0,1,0,0,0,1,0,0,0,1,0,0,0,0,0,1,0,0,0,1
Entity1433,0,0,0,1,0,0,0,1,0,0,0,1,0,0,0,0,0,1,0,0,0,1
Entity1434,0,0,0,1,0,0,0,1,0,1,0,1,0,0,0,0,0,1,0,0,0,1
Entity1435,0,0,0,1,0,0,0,1,1,1,1,0,0,0,0,0,1,0,0,0,0,1
Entity1436,0,0,0,1,0,0,0,1,1,1,1,0,0,0,0,0,0,1,0,0,0,1
Entity1437,0,1,0,0,0,0,1,0,1,0,0,0,1,0,0,0,0,1,0,0,0,1
Entity1438,0,0,0,1,0,0,0,1,1,1,1,0,0,0,0,0,0,1,0,0,0,1
Entity1439,0,1,0,0,0,0,0,1,1,1,0,0,1,0,0,0,1,0,0,0,0,1
Entity1440,0,0,1,0,0,0,0,1,0,1,1,0,0,0,0,0,0,1,0,0,0,1
Entity1441,0,0,0,1,0,0,0,1,0,0,0,1,0,0,0,0,0,1,0,0,0,1
Entity1442,0,0,1,0,0,0,1,0,0,0,0,1,0,0,0,0,0,1,0,0,0,1
Entity1443,0,0,0,1,0,0,0,1,0,1,0,1,0,0,0,0,0,1,0,0,0,1
Entity1444,0,1,0,0,0,1,0,0,0,1,0,0,0,1,0,0,0,1,0,0,0,1
Entity1445,0,0,0,1,0,0,0,1,1,1,0,0,1,0,0,0,0,1,0,0,0,1
Entity1446,0,0,0,1,0,0,0,1,0,1,0,0,1,0,0,0,0,1,0,0,0,1
Entity1447,0,1,0,0,0,0,1,0,0,0,0,1,0,0,0,0,0,1,0,0,0,1
Entity1448,0,0,0,1,0,0,0,1,0,0,0,1,0,0,0,0,0,1,0,0,0,1
Entity1449,0,1,0,0,0,0,1,0,1,1,0,0,1,0,0,0,1,0,0,0,0,1
Entity1450,0,0,0,1,0,0,0,1,1,1,0,1,0,0,0,0,1,0,0,0,0,1
Entity1451,0,0,0,1,0,0,0,1,1,1,0,0,1,0,0,0,1,0,0,0,0,1
Entity1452,0,1,0,0,0,0,0,1,1,0,0,1,0,0,0,0,1,0,0,0,0,1
Entity1453,0,0,1,0,0,1,0,0,1,1,0,0,1,0,0,0,0,1,0,0,0,1
Entity1454,1,0,0,0,0,0,1,0,1,1,0,0,1,0,0,0,0,1,0,0,0,1
Entity1455,0,0,1,0,0,0,0,1,1,1,1,0,0,0,0,0,0,1,0,0,0,1
Entity1456,0,1,0,0,0,1,0,0,1,1,0,1,0,0,0,0,1,0,0,0,0,1
Entity1457,0,1,0,0,0,1,0,0,0,0,0,1,0,0,0,0,0,1,0,0,0,1
Entity1458,0,0,1,0,0,0,1,0,1,1,0,1,0,0,0,0,0,1,0,0,0,1
Entity1459,0,1,0,0,0,1,0,0,1,1,0,1,0,0,0,1,0,0,1,0,0,1
Entity1460,0,0,0,1,0,0,0,1,0,0,0,1,0,0,0,0,0,1,0,0,0,1
Entity1461,0,0,0,1,0,0,1,0,1,1,0,1,0,0,0,1,0,0,0,0,0,1
Entity1462,0,0,0,1,0,0,0,1,1,1,1,0,0,0,0,1,0,0,1,0,0,1
Entity1463,0,0,0,1,0,0,0,1,0,1,0,1,0,0,0,0,0,1,0,0,0,1
Entity1464,1,0,0,0,0,0,1,0,1,1,0,0,1,0,0,0,0,1,0,0,0,1
Entity1465,0,1,0,0,0,1,0,0,1,1,0,1,0,0,0,0,0,1,0,0,0,1
Entity1466,0,1,0,0,0,0,0,1,1,1,1,0,0,0,0,0,1,0,0,0,0,1
Entity1467,0,1,0,0,0,0,0,1,1,1,0,1,0,0,0,0,0,1,0,0,0,1
Entity1468,0,0,0,1,0,0,0,1,1,1,1,0,0,0,0,0,0,1,0,0,0,1
Entity1469,0,0,0,1,0,0,0,1,1,0,0,1,0,0,0,0,0,1,0,0,0,1
Entity1470,0,0,0,1,0,0,0,1,1,1,1,0,0,0,0,0,0,1,0,0,0,1
Entity1471,0,0,1,0,0,0,1,0,1,0,1,0,0,0,0,0,0,1,0,0,0,1
Entity1472,0,0,1,0,0,0,1,0,1,0,0,1,0,0,0,1,0,0,0,0,0,1
Entity1473,0,0,1,0,0,0,1,0,1,1,0,1,0,0,0,0,0,1,0,0,0,1
