{
    "datasets": {
        "solar-flare_FvsAll-cleaned.arff": {
            "att": "class",
            "val": "1"
        },
        "kddcup99-corrected-u2rvsnormal-nominal-cleaned.arff": {
            "att": "class",
            "val": "1"
        },
        "census-income-full-nominal.arff": {
            "att": "class",
            "val": "50000+"
        },
        "bank-additional-ful-nominal.arff": {
            "att": "y",
            "val": "yes"
        },
        "list_attr_celeba_baldvsnonbald.arff": {
            "att": "class",
            "val": "1"
        },
        "ad_nominal.arff": {
            "att": "class",
            "val": "ad."
        },
        "covertype_nominal_4vs123567.arff": {
            "att": "class",
            "val": "1"
        },
        "cmc-nominal.arff": {
            "att": "class_numberofchildren",
            "val": "1"
        },
        "w7a-libsvm-nonsparse.arff": {
            "att": "class",
            "val": "1"
        },
        "AID362red_train_allpossiblenominal.arff": {
            "att": "Outcome",
            "val": "Active"
        },
        "kddcup99-corrected-probevsnormal-nominal-cleaned.arff": {
            "att": "class",
            "val": "1"
        },
        "Reuters-corn-100.arff": {
            "att": "corn",
            "val": "yes"
        },
        "apascal_entire_trainvsall.arff": {
            "att": "class",
            "val": "1"
        },
        "chess_krkopt_zerovsall.arff": {
            "att": "class",
            "val": "0"
        }
    }
}