Objects,AVF Rank,FCA Confidence Rank,FCA Lift Rank
Entity1551,18307,5146,1566
Entity6104,18309,5331,6071
Entity6348,18311,5333,6315
Entity7528,18312,5371,7531
Entity8926,18428,1757,8929
Entity8931,17360,487,8934
Entity8932,17361,488,8935
Entity8933,17362,489,8936
Entity8934,17363,490,8937
Entity9634,18321,5568,9636
Entity10087,18325,5639,10087
Entity11184,18328,5740,11180
Entity11495,18329,5755,11490
Entity11581,18330,5756,11574
Entity12302,18333,5811,11895
Entity12676,18429,1758,12540
Entity12679,18335,5828,12541
Entity12687,18430,1759,12686
Entity12688,17462,605,12687
Entity12690,18336,5829,12688
Entity12899,18337,5841,12901
Entity12919,3951,1760,12921
Entity12921,17466,609,12923
Entity12924,17467,610,12926
Entity13000,18338,5847,13002
Entity13004,3952,1761,13006
Entity13006,17469,614,13008
Entity13007,17470,615,13009
Entity13240,18339,5862,13241
Entity14583,18343,5970,14586
Entity14849,18344,5997,14852
Entity16881,18431,1762,16064
Entity16882,17549,719,16065
Entity16884,18345,6107,16067
Entity17001,18346,6108,16371
Entity18720,18348,6161,18721
Entity19864,18351,6239,19864
Entity20129,18353,6251,20111
Entity20392,76,109,20374
Entity20400,77,110,20382
Entity20409,78,111,20391
Entity20414,79,112,20396
Entity20420,80,113,20402
Entity20424,81,114,20406
Entity20431,82,115,20413
Entity20439,83,116,20421
Entity20447,84,117,20429
Entity20451,85,118,20433
Entity20596,17200,271,20578
Entity20597,17201,272,20579
Entity20601,86,119,20583
Entity20606,87,120,20588
Entity20608,88,121,20590
Entity20610,89,122,20592
Entity20612,90,123,20594
Entity20614,91,124,20596
Entity20615,92,125,20597
Entity20617,93,126,20599
Entity20621,17202,273,20603
Entity20622,17203,274,20604
Entity20869,17204,275,20851
Entity20870,17205,276,20852
Entity20876,94,127,20858
Entity20880,95,128,20862
Entity20882,96,129,20864
Entity20890,97,130,20872
Entity20898,98,131,20880
Entity20908,99,132,20890
Entity20912,100,133,20894
Entity20918,101,134,20899
Entity20920,102,135,20901
Entity21005,18354,6320,20986
Entity21150,17206,277,21131
Entity21151,17207,278,21132
Entity21162,103,136,21143
Entity21168,104,137,21149
Entity21174,105,138,21155
Entity21180,106,139,21161
Entity21182,107,140,21163
Entity21194,108,141,21175
Entity21198,109,142,21179
Entity21204,17208,279,21185
Entity21205,17209,280,21186
Entity21230,110,143,21211
Entity21377,17210,281,21358
Entity21378,17211,282,21359
Entity21379,111,144,21360
Entity21385,112,145,21366
Entity21387,113,146,21368
Entity21394,114,147,21375
Entity21399,115,148,21380
Entity21408,116,149,21389
Entity21414,117,150,21395
Entity21426,118,151,21407
Entity21435,119,152,21416
Entity23067,18359,6437,23047
Entity23459,18360,6440,23439
Entity23795,18363,6470,23773
Entity23803,3953,1764,23779
Entity23805,17653,854,23780
Entity23851,18364,6481,23824
Entity23857,3954,1765,23827
Entity23859,17655,856,23829
Entity23903,120,153,23878
Entity23904,121,154,23879
Entity23908,122,155,23885
Entity23910,123,156,23887
Entity23912,124,157,23900
Entity23918,125,158,23906
Entity23921,18365,6495,23909
Entity23922,126,159,23910
Entity23923,18433,1766,23911
Entity23927,127,160,23915
Entity23931,128,161,23919
Entity23932,17661,863,23920
Entity23936,129,162,23924
Entity23941,18435,1768,23929
Entity23944,17663,866,23932
Entity23945,17664,867,23933
Entity23982,18436,1769,23955
Entity23987,17666,869,23956
Entity24017,18437,1770,23993
Entity24231,130,163,24211
Entity24243,131,164,24223
Entity24252,132,165,24224
Entity24259,133,166,24227
Entity24268,134,167,24230
Entity24274,135,168,24232
Entity24286,136,169,24266
Entity24290,137,170,24270
Entity24307,138,172,24285
Entity24309,139,173,24287
Entity24524,140,174,24487
Entity24528,141,175,24491
Entity24535,142,176,24515
Entity24537,143,177,24517
Entity24543,144,178,24523
Entity24544,145,179,24524
Entity24549,146,180,24525
Entity24553,147,181,24527
Entity24555,148,182,24530
Entity24559,149,183,24534
Entity24560,150,184,24535
Entity24775,151,185,28218
Entity24782,152,186,28229
Entity24787,153,187,28233
Entity24794,154,188,28236
Entity24798,155,189,28240
Entity24802,156,190,28243
Entity24805,157,191,28246
Entity24808,158,192,28249
Entity24813,159,193,28251
Entity24814,160,194,28252
Entity24988,74,105,28432
Entity24989,17213,284,28433
Entity24991,161,195,28435
Entity24994,162,196,28438
Entity24996,17214,285,28441
Entity24997,17215,286,28442
Entity25005,163,197,28448
Entity25009,17216,287,28450
Entity25010,17217,288,28451
Entity25015,164,198,28453
Entity25020,165,199,28467
Entity25026,17218,289,28469
Entity25027,17219,290,28470
Entity25029,166,200,28472
Entity25193,75,106,28640
Entity25194,17220,291,28641
Entity25199,167,201,28646
Entity25205,168,202,28650
Entity25217,169,203,28658
Entity25220,170,204,28663
Entity25222,171,205,28665
Entity25225,172,206,28666
Entity25230,173,207,28668
Entity25234,174,208,28669
Entity25239,175,209,28671
Entity25721,18438,1771,29159
Entity25723,17702,911,29161
Entity25725,18370,6614,29162
Entity25870,18371,6631,29310
Entity26614,18375,6683,25220
Entity26730,176,210,25448
Entity26734,177,211,25452
Entity26736,178,212,25454
Entity26748,179,213,25471
Entity26749,180,214,25472
Entity26752,181,215,25475
Entity26756,182,216,25479
Entity26760,183,217,25483
Entity26768,184,218,25486
Entity26771,185,219,25488
Entity26775,186,220,25491
Entity26779,187,221,25493
Entity26786,188,222,25494
Entity28820,189,223,29689
Entity28822,190,224,29691
Entity28823,191,225,29692
Entity28826,192,226,29694
Entity28827,193,227,29695
Entity28830,194,228,29698
Entity28831,195,229,29699
Entity28833,196,230,29701
Entity28837,197,231,29702
Entity28841,198,232,29703
Entity29500,199,233,28042
Entity29503,200,234,28045
Entity29506,201,235,28048
Entity29509,202,236,28051
Entity29512,203,237,28054
Entity29514,204,238,28056
Entity29517,205,239,28059
Entity29519,206,240,28061
Entity29522,207,241,28064
Entity29525,208,242,28067
Entity34069,18439,1773,34053
Entity34072,18384,7065,34055
Entity36331,18388,7160,36327
Entity40306,18394,7417,40310
Entity41217,18397,7483,41383
Entity42617,18399,7535,42460
Entity42758,18440,1774,42951
Entity42771,18001,1295,42955
Entity46730,18405,7693,46430
Entity48317,18408,7716,48305
Entity52219,18412,7939,52199
Entity56048,18420,8170,55969