Objects,AVF Rank,FCA Confidence Rank,FCA Lift Rank
Entity1551,18307,5213,1551
Entity6104,18309,5215,6104
Entity6348,18311,5217,6348
Entity7528,18312,5218,7528
Entity8926,18428,1695,8926
Entity8931,17360,741,8931
Entity8932,17361,742,8932
Entity8933,17362,743,8933
Entity8934,17363,744,8934
Entity9634,18321,5227,9634
Entity10087,18325,5231,10087
Entity11184,18328,5234,11184
Entity11495,18329,5235,11495
Entity11581,18330,5236,11581
Entity12302,18333,5239,12302
Entity12676,18429,1696,12676
Entity12679,18335,5241,12679
Entity12687,18430,1697,12687
Entity12688,17462,843,12688
Entity12690,18336,5242,12690
Entity12899,18337,5243,12899
Entity12919,3951,1770,12919
Entity12921,17466,847,12921
Entity12924,17467,848,12924
Entity13000,18338,5244,13000
Entity13004,3952,1771,13004
Entity13006,17469,850,13006
Entity13007,17470,851,13007
Entity13240,18339,5245,13240
Entity14583,18343,5249,14583
Entity14849,18344,5250,14849
Entity16881,18431,1698,16881
Entity16882,17549,930,16882
Entity16884,18345,5251,16884
Entity17001,18346,5252,17001
Entity18720,18348,5254,18720
Entity19864,18351,5257,19864
Entity20129,18353,5259,20129
Entity20392,76,74,20392
Entity20400,77,75,20400
Entity20409,78,76,20409
Entity20414,79,77,20414
Entity20420,80,78,20420
Entity20424,81,79,20424
Entity20431,82,80,20431
Entity20439,83,81,20439
Entity20447,84,82,20447
Entity20451,85,83,20451
Entity20596,17200,581,20596
Entity20597,17201,582,20597
Entity20601,86,84,20601
Entity20606,87,85,20606
Entity20608,88,86,20608
Entity20610,89,87,20610
Entity20612,90,88,20612
Entity20614,91,89,20614
Entity20615,92,90,20615
Entity20617,93,91,20617
Entity20621,17202,583,20621
Entity20622,17203,584,20622
Entity20869,17204,585,20869
Entity20870,17205,586,20870
Entity20876,94,92,20876
Entity20880,95,93,20880
Entity20882,96,94,20882
Entity20890,97,95,20890
Entity20898,98,96,20898
Entity20908,99,97,20908
Entity20912,100,98,20912
Entity20918,101,99,20918
Entity20920,102,100,20920
Entity21005,18354,5260,21005
Entity21150,17206,587,21150
Entity21151,17207,588,21151
Entity21162,103,101,21162
Entity21168,104,102,21168
Entity21174,105,103,21174
Entity21180,106,104,21180
Entity21182,107,105,21182
Entity21194,108,106,21194
Entity21198,109,107,21198
Entity21204,17208,589,21204
Entity21205,17209,590,21205
Entity21230,110,108,21230
Entity21377,17210,591,21377
Entity21378,17211,592,21378
Entity21379,111,109,21379
Entity21385,112,110,21385
Entity21387,113,111,21387
Entity21394,114,112,21394
Entity21399,115,113,21399
Entity21408,116,114,21408
Entity21414,117,115,21414
Entity21426,118,116,21426
Entity21435,119,117,21435
Entity23067,18359,5265,23067
Entity23459,18360,5266,23459
Entity23795,18363,5269,23795
Entity23803,3953,1772,23803
Entity23805,17653,1034,23805
Entity23851,18364,5270,23851
Entity23857,3954,1773,23857
Entity23859,17655,1036,23859
Entity23903,120,118,23903
Entity23904,121,119,23904
Entity23908,122,120,23908
Entity23910,123,121,23910
Entity23912,124,122,23912
Entity23918,125,123,23918
Entity23921,18365,5271,23921
Entity23922,126,124,23922
Entity23923,18433,1700,23923
Entity23927,127,125,23927
Entity23931,128,126,23931
Entity23932,17661,1042,23932
Entity23936,129,127,23936
Entity23941,18435,1702,23941
Entity23944,17663,1044,23944
Entity23945,17664,1045,23945
Entity23982,18436,1703,23982
Entity23987,17666,1047,23987
Entity24017,18437,1704,24017
Entity24231,130,128,24231
Entity24243,131,129,24243
Entity24252,132,130,24252
Entity24259,133,131,24259
Entity24268,134,132,24268
Entity24274,135,133,24274
Entity24286,136,134,24286
Entity24290,137,135,24290
Entity24307,138,136,24307
Entity24309,139,137,24309
Entity24524,140,138,24524
Entity24528,141,139,24528
Entity24535,142,140,24535
Entity24537,143,141,24537
Entity24543,144,142,24543
Entity24544,145,143,24544
Entity24549,146,144,24549
Entity24553,147,145,24553
Entity24555,148,146,24555
Entity24559,149,147,24559
Entity24560,150,148,24560
Entity24775,151,149,24775
Entity24782,152,150,24782
Entity24787,153,151,24787
Entity24794,154,152,24794
Entity24798,155,153,24798
Entity24802,156,154,24802
Entity24805,157,155,24805
Entity24808,158,156,24808
Entity24813,159,157,24813
Entity24814,160,158,24814
Entity24988,74,72,24988
Entity24989,17213,594,24989
Entity24991,161,159,24991
Entity24994,162,160,24994
Entity24996,17214,595,24996
Entity24997,17215,596,24997
Entity25005,163,161,25005
Entity25009,17216,597,25009
Entity25010,17217,598,25010
Entity25015,164,162,25015
Entity25020,165,163,25020
Entity25026,17218,599,25026
Entity25027,17219,600,25027
Entity25029,166,164,25029
Entity25193,75,73,25193
Entity25194,17220,601,25194
Entity25199,167,165,25199
Entity25205,168,166,25205
Entity25217,169,167,25217
Entity25220,170,168,25220
Entity25222,171,169,25222
Entity25225,172,170,25225
Entity25230,173,171,25230
Entity25234,174,172,25234
Entity25239,175,173,25239
Entity25721,18438,1705,25721
Entity25723,17702,1083,25723
Entity25725,18370,5276,25725
Entity25870,18371,5277,25870
Entity26614,18375,5281,26614
Entity26730,176,174,26730
Entity26734,177,175,26734
Entity26736,178,176,26736
Entity26748,179,177,26748
Entity26749,180,178,26749
Entity26752,181,179,26752
Entity26756,182,180,26756
Entity26760,183,181,26760
Entity26768,184,182,26768
Entity26771,185,183,26771
Entity26775,186,184,26775
Entity26779,187,185,26779
Entity26786,188,186,26786
Entity28820,189,187,28820
Entity28822,190,188,28822
Entity28823,191,189,28823
Entity28826,192,190,28826
Entity28827,193,191,28827
Entity28830,194,192,28830
Entity28831,195,193,28831
Entity28833,196,194,28833
Entity28837,197,195,28837
Entity28841,198,196,28841
Entity29500,199,197,29500
Entity29503,200,198,29503
Entity29506,201,199,29506
Entity29509,202,200,29509
Entity29512,203,201,29512
Entity29514,204,202,29514
Entity29517,205,203,29517
Entity29519,206,204,29519
Entity29522,207,205,29522
Entity29525,208,206,29525
Entity34069,18439,1706,34069
Entity34072,18384,5290,34072
Entity36331,18388,5294,36331
Entity40306,18394,5300,40306
Entity41217,18397,5303,41217
Entity42617,18399,5305,42617
Entity42758,18440,1707,42758
Entity42771,18001,1382,42771
Entity46730,18405,5311,46730
Entity48317,18408,5314,48317
Entity52219,18412,5318,52219
Entity56048,18420,5326,56048