Objects,AVF Rank,FCA Confidence Rank,FCA Lift Rank
Entity1551,18307,1827,1398
Entity6104,18309,2012,6017
Entity6348,18311,2014,6261
Entity7528,18312,2052,7529
Entity8926,18428,2179,8929
Entity8931,17360,454,8934
Entity8932,17361,455,8935
Entity8933,17362,456,8936
Entity8934,17363,457,8937
Entity9634,18321,2250,9635
Entity10087,18325,2321,10071
Entity11184,18328,2422,11184
Entity11495,18329,2437,11647
Entity11581,18330,2438,11395
Entity12302,18333,2493,12291
Entity12676,18429,2510,12579
Entity12679,18335,2511,12580
Entity12687,18430,2512,14194
Entity12688,17462,572,14195
Entity12690,18336,2513,14196
Entity12899,18337,2525,14461
Entity12919,3951,2528,14481
Entity12921,17466,576,14483
Entity12924,17467,577,14486
Entity13000,18338,2532,14562
Entity13004,3952,2533,14566
Entity13006,17469,581,14568
Entity13007,17470,582,14569
Entity13240,18339,2548,14775
Entity14583,18343,2656,16122
Entity14849,18344,2683,16412
Entity16881,18431,2793,18060
Entity16882,17549,687,18061
Entity16884,18345,2794,18063
Entity17001,18346,2795,18030
Entity18720,18348,2848,18716
Entity19864,18351,2926,19827
Entity20129,18353,2938,20129
Entity20392,76,24,20389
Entity20400,77,25,20392
Entity20409,78,26,20396
Entity20414,79,27,20397
Entity20420,80,28,20404
Entity20424,81,29,20413
Entity20431,82,30,20415
Entity20439,83,31,20416
Entity20447,84,32,20420
Entity20451,85,33,20448
Entity20596,17200,749,20580
Entity20597,17201,750,20581
Entity20601,86,34,20582
Entity20606,87,35,20603
Entity20608,88,36,20605
Entity20610,89,37,20607
Entity20612,90,38,20609
Entity20614,91,39,20610
Entity20615,92,40,20611
Entity20617,93,41,20613
Entity20621,17202,752,20617
Entity20622,17203,753,20618
Entity20869,17204,758,20866
Entity20870,17205,759,20867
Entity20876,94,42,20872
Entity20880,95,43,20873
Entity20882,96,44,20874
Entity20890,97,45,20876
Entity20898,98,46,20878
Entity20908,99,47,20885
Entity20912,100,48,20891
Entity20918,101,49,20911
Entity20920,102,50,20912
Entity21005,18354,3008,21001
Entity21150,17206,781,21139
Entity21151,17207,782,21140
Entity21162,103,51,21145
Entity21168,104,52,21151
Entity21174,105,53,21171
Entity21180,106,54,21172
Entity21182,107,55,21173
Entity21194,108,56,21177
Entity21198,109,57,21181
Entity21204,17208,784,21198
Entity21205,17209,785,21199
Entity21230,110,58,21227
Entity21377,17210,787,26462
Entity21378,17211,788,26463
Entity21379,111,59,26464
Entity21385,112,60,26470
Entity21387,113,61,26472
Entity21394,114,62,26479
Entity21399,115,63,26484
Entity21408,116,64,26493
Entity21414,117,65,26499
Entity21426,118,66,26503
Entity21435,119,67,26505
Entity23067,18359,3125,21446
Entity23459,18360,3128,27340
Entity23795,18363,3158,27548
Entity23803,3953,3161,27554
Entity23805,17653,835,27555
Entity23851,18364,3170,27602
Entity23857,3954,3172,27605
Entity23859,17655,837,27607
Entity23903,120,121,27659
Entity23904,121,122,27660
Entity23908,122,123,27666
Entity23910,123,124,27668
Entity23912,124,125,27671
Entity23918,125,126,27677
Entity23921,18365,3185,27680
Entity23922,126,127,27681
Entity23923,18433,3186,27682
Entity23927,127,128,27686
Entity23931,128,129,27690
Entity23932,17661,844,27691
Entity23936,129,130,27695
Entity23941,18435,3188,27700
Entity23944,17663,847,27703
Entity23945,17664,848,27704
Entity23982,18436,3196,27775
Entity23987,17666,850,27776
Entity24017,18437,3199,27811
Entity24231,130,131,28043
Entity24243,131,132,28055
Entity24252,132,133,28058
Entity24259,133,134,28061
Entity24268,134,135,28064
Entity24274,135,136,28066
Entity24286,136,137,28098
Entity24290,137,138,28099
Entity24307,138,141,28119
Entity24309,139,142,28121
Entity24524,140,143,28267
Entity24528,141,144,28326
Entity24535,142,145,28347
Entity24537,143,146,28349
Entity24543,144,147,28355
Entity24544,145,148,28356
Entity24549,146,149,28359
Entity24553,147,150,28361
Entity24555,148,151,28365
Entity24559,149,152,28368
Entity24560,150,153,28369
Entity24775,151,154,28503
Entity24782,152,155,28513
Entity24787,153,156,28599
Entity24794,154,157,28602
Entity24798,155,158,28605
Entity24802,156,159,28608
Entity24805,157,160,28610
Entity24808,158,161,28613
Entity24813,159,162,28615
Entity24814,160,163,28616
Entity24988,74,165,28799
Entity24989,17213,869,28800
Entity24991,161,166,28801
Entity24994,162,167,28803
Entity24996,17214,870,28808
Entity24997,17215,871,28809
Entity25005,163,168,28814
Entity25009,17216,872,28817
Entity25010,17217,873,28818
Entity25015,164,169,28822
Entity25020,165,170,28829
Entity25026,17218,874,28838
Entity25027,17219,875,28839
Entity25029,166,171,28841
Entity25193,75,172,28986
Entity25194,17220,881,28987
Entity25199,167,173,28990
Entity25205,168,174,29017
Entity25217,169,175,29021
Entity25220,170,176,29025
Entity25222,171,177,29027
Entity25225,172,178,29028
Entity25230,173,179,29030
Entity25234,174,180,29031
Entity25239,175,181,29033
Entity25721,18438,3309,29527
Entity25723,17702,900,29528
Entity25725,18370,3310,29529
Entity25870,18371,3327,29678
Entity26614,18375,3379,22518
Entity26730,176,184,22768
Entity26734,177,185,22772
Entity26736,178,186,22774
Entity26748,179,187,22788
Entity26749,180,188,22789
Entity26752,181,189,22792
Entity26756,182,190,22796
Entity26760,183,191,22800
Entity26768,184,192,22806
Entity26771,185,193,22807
Entity26775,186,194,22809
Entity26779,187,195,22813
Entity26786,188,196,22814
Entity28820,189,197,24851
Entity28822,190,198,24853
Entity28823,191,199,24854
Entity28826,192,200,24856
Entity28827,193,201,24857
Entity28830,194,202,24860
Entity28831,195,203,24861
Entity28833,196,204,24863
Entity28837,197,205,24864
Entity28841,198,206,24865
Entity29500,199,207,25510
Entity29503,200,208,25513
Entity29506,201,209,25516
Entity29509,202,210,25519
Entity29512,203,211,25522
Entity29514,204,212,25524
Entity29517,205,213,25527
Entity29519,206,214,25529
Entity29522,207,215,25532
Entity29525,208,216,25535
Entity34069,18439,3762,34050
Entity34072,18384,3763,34052
Entity36331,18388,3858,36327
Entity40306,18394,4115,40837
Entity41217,18397,4181,41725
Entity42617,18399,4233,39521
Entity42758,18440,4242,40015
Entity42771,18001,1288,40019
Entity46730,18405,4392,45033
Entity48317,18408,4415,47794
Entity52219,18412,4638,53218
Entity56048,18420,4869,57686